Op_Read,Op_Write,size (bytes),inter request time (s),SSD processing time (s),future inter request time (s)
1,0,8,-9.823475603123331,7.218e-06,-11.362868994250919
1,0,16,-11.362868994250919,3.304e-06,-10.578401894932416
1,0,8,-10.578401894932416,3.063e-06,-13.342389160166942
1,0,8,-13.342389160166942,4.094e-06,-11.20964061329801
1,0,16,-11.20964061329801,2.232e-06,-10.455343583036992
1,0,16,-10.455343583036992,2.302e-06,-9.950097122904381
1,0,16,-9.950097122904381,2.4230000000000003e-06,-12.22566209159937
1,0,8,-12.22566209159937,3.293e-06,-11.793434156748981
1,0,8,-11.793434156748981,2.212e-06,-11.682054017062088
1,0,24,-11.682054017062088,2.232e-06,-12.443568322091553
