Op_Read,Op_Write,size (bytes),inter request time (s),SSD processing time (s),future inter request time (s)
1,0,65536,-6.8098122046521725,1.8879e-05,-10.33735213516599
1,0,65536,-10.33735213516599,2.1232000000000003e-05,-12.267948049248261
1,0,65536,-12.267948049248261,1.4175e-05,-10.199201796685172
1,0,65536,-10.199201796685172,1.4094e-05,-10.22094178332158
1,0,65536,-10.22094178332158,9.149e-06,-10.054310442270712
1,0,65536,-10.054310442270712,1.4324e-05,-9.89353722168296
1,0,65536,-9.89353722168296,1.5986000000000002e-05,-7.053474933331543
1,0,65536,-7.053474933331543,1.025e-05,-6.285406169730961
1,0,65536,-6.285406169730961,7.067e-06,-6.555479999388092
1,0,65536,-6.555479999388092,1.5096e-05,-8.069946549293437
