{
  "paths": {
    "df_prefix_loc": "../Workloads/",
    "dest_prefix_loc": "../Models/LSTM/",
    "msr-cambridge": {
      "sample": "MSR-Cambridge/msr_cambridge_mod2_it.csv",
      "lvm0": "MSR-Cambridge/Parts_mod_it/CAM-USP-01-lvm0_mod_it.csv",
      "regular": "MSR-Cambridge/Parts_mod_it/CAM-02-SRV-lvm1-12_mod_it.csv",
      "very_simple": "MSR-Cambridge/Parts_mod_it/CAM-02-SRV-lvm1-12_very_simple.csv",
      "classify": "MSR-Cambridge/Parts_mod_it/CAM-02-SRV-lvm1-12_classwise.csv"
    },
    "ycsb": {
      "sample": "YCSB/YCSB-25_sample_mod.csv",
      "ssdtrace-00": "YCSB/ssdtrace-00_short_mod_it.csv",
      "ssdtrace-25": "YCSB/Parts_mod_it/ssdtrace-25-73_mod_it.csv",
      "generated": "YCSB/generated_mod_it.csv",
      "ssdtrace-00_pid": "YCSB/ssdtrace-00_short_mod_pid_it.csv",
      "ssdtrace-25_pid": "YCSB/Parts_mod_it/ssdtrace-25-73_mod_pid_it.csv",
      "generated_pid": "YCSB/generated_mod_pid_it.csv",
      "ssdtrace-00_cpu": "YCSB/ssdtrace-00_short_mod_cpu_it.csv",
      "ssdtrace-25_cpu": "YCSB/Parts_mod_it/ssdtrace-25-73_mod_cpu_it.csv",
      "generated_cpu": "YCSB/generated_mod_cpu_it.csv"
    }
  },
"df_part": [0, 10000], "folder_path_model": "../Models/Selected/ycsb_log_tcn_hyperparam_long_n_1685116782", "df_shape": {"n_future": 1, "train_test_split": 0.2, "features_msr_cambridge_exclude": ["timestamp (s)", "idle time (s)", "SectorNumber"], "features_ycsb_exclude": ["ProcessID", "CPU Core ID","SectorNumber", "timestamp (s)", "idle time (s)"]}, "earlystop": {"min_delta": 0.0001, "patience": 30}, "hyperparam": {"lstm": {"enable": 1, "stateful": "True", "n1": [160, 160, 160], "n2": [256, 256, 256], "n3": [128, 128, 128], "activation": ["tanh"], "recurrent_activation": ["relu"]}, "tcn": {"enable": 0, "classify": 0, "nb_filters": [200, 200, 10], "kernel_size": [3, 3, 1], "max_dilation": [4, 4, 1], "nb_stacks": [1, 1, 1], "use_skip_connections": ["True"], "dropout_rate": [0.1, 0.1], "activation": ["relu"], "norm": [0, 0], "kernel_initializer": ["he_normal"]}, "lr_exp": {"enable": 0, "i_lr": [0.00001, 0.00001], "dec_steps": [1000, 1000], "dec_rate": [0.94, 0.94]}, "lr_const": {"enable": 1, "boundaries": [10, 20, 80], "values": [3e-05, 1e-05, 4e-06, 1e-06]}, "epochs": [1000, 1000], "online_train_interval": [2, 2],
  "online_lr": [0.001, 0.001],
  "optimizer": ["adam"], "model_loss": ["custom"], "beta": [12, 12], "huber_delta": [0.3, 0.3], "n_past": [100, 100], "batch_size_exp": [0, 0]}}