{
  "paths":{
    "df_prefix_loc": "../Workloads/",
    "dest_prefix_loc": "../Models/",
    "msr-cambridge": {
      "sample": "MSR-Cambridge/msr_cambridge_mod2_it.csv",
      "lvm0": "MSR-Cambridge/Parts_mod_it/CAM-USP-01-lvm0_mod_it.csv",
      "hm0": "MSR-Cambridge/Parts_mod_it/CAMRESHMSA01-lvm0-1_mod_it.csv",
      "regular": "MSR-Cambridge/Parts_mod_it/CAM-02-SRV-lvm1-12_mod_it.csv",
      "very_simple":"MSR-Cambridge/Parts_mod_it/CAM-02-SRV-lvm1-12_very_simple.csv",
      "classify": "MSR-Cambridge/Parts_mod_it/CAM-02-SRV-lvm1-12_classwise.csv"
    },
    "ycsb": {
      "sample": "YCSB/YCSB-25_sample_mod.csv",
      "ssdtrace-00": "YCSB/ssdtrace-00_short_mod_it.csv",
      "ssdtrace-25": "YCSB/ssdtrace-25-73_mod_it.csv",
      "generated": "YCSB/generated_mod_it.csv",
      "ssdtrace-00_pid": "YCSB/ssdtrace-00_short_mod_pid_it.csv",
      "ssdtrace-25_pid": "YCSB/ssdtrace-25-73_mod_pid_it.csv",
      "generated_pid": "YCSB/generated_mod_pid_it.csv",
      "ssdtrace-00_cpu": "YCSB/ssdtrace-00_short_mod_cpu_it.csv",
      "ssdtrace-25_cpu": "YCSB/ssdtrace-25-73_mod_cpu_it.csv",
      "generated_cpu": "YCSB/generated_mod_cpu_it.csv"
    }
  },

  "df_part": [0,10000],
  "folder_path_model": "../Models/LSTM/generated_pid_ycsb_not_log_tcntest_1685808047",

  "df_shape": {
    "n_future":1,
    "train_test_split": 0.7,
    "features_msr_cambridge_exclude":["timestamp (s)", "idle time (s)", "SectorNumber"],
    "features_ycsb_exclude": ["SectorNumber", "timestamp (s)", "idle time (s)"]
  },

  "earlystop": {
    "min_delta": 1e-4,
    "patience": 30
  },

  "hyperparam": {
    "lstm": {
      "enable": 0,
      "stateful": "True",
      "n1": [160,160,160],
      "n2": [256,256,256],
      "n3": [128,128,128],
      "activation": ["tanh"],
      "recurrent_activation": ["relu"]
      },

    "tcn":{
      "enable": 1,
      "classify": 0, 
      "nb_filters": [160, 160, 160],
      "kernel_size": [3, 3, 3],
      "max_dilation": [5, 5, 5],
      "nb_stacks": [1, 1 ,1],
      "use_skip_connections":["True"],
      "dropout_rate":[0.1,0.1],
      "activation":["relu"],
      "norm":[0,0],
      "kernel_initializer":["he_normal"]
      },

    "lr_exp": {
      "enable": 0,
      "i_lr": [0.0001,0.0001],
      "dec_steps": [1000,1000],
      "dec_rate": [0.94, 0.94]
    },
    "lr_const": {
      "enable": 1,
      "boundaries": [10, 20, 80],
      "values": [0.00003, 0.00001, 0.000004, 0.000001]
    },

    "epochs": [3,3],
    "online_train_interval": [100,100],
    "online_lr": [0.001, 0.001],
    "optimizer": ["adam"],
    "model_loss": ["custom"],
    "beta": [12,12],
    "huber_delta": [0.3,0.3],
    "n_past": [100,100],
    "batch_size_exp":[6,6]
  }
}
