0.0,Write,9056014000.0,2048.0,2833,2.1499999999999997e-05,0.0
2.1499999999999997e-05,Write,11855352000.0,512.0,2617,2.97e-05,0.0
5.12e-05,Write,5548077000.0,4096.0,2320,0.5936345,0.593152324999999
0.5936857,Write,3163095000.0,40960.0,3438,0.00023999999999999998,0.0
0.5939257,Write,3154133000.0,4096.0,1037,1.55e-05,0.0
0.5939412,Write,3154129000.0,4096.0,883,0.4061222,0.4055938250000009
1.0000634,Write,1444548600.0,1536.0,2135,8e-06,0.0
1.0000714,Write,5584445400.0,1024.0,2054,0.9998366,0.999424450000002
1.999908,Write,8477745000.0,16384.0,3625,7.489999999999999e-05,0.0
1.9999829,Write,8477937700.0,8192.0,2875,8e-07,0.0
1.9999837,Write,11026330000.0,4096.0,2868,5.43e-05,0.0
2.000038,Write,369532930.0,1024.0,2324,0.9999509,0.9995106249999992
2.9999889,Write,8141848600.0,4096.0,2751,4.1899999999999995e-05,0.0
3.0000307999999998,Write,6263288000.0,5632.0,2333,0.8594077,0.8588982749999984
3.8594384999999996,Write,1023467500.0,512.0,1950,3.25e-05,0.0
3.8594709999999997,Write,1024086000.0,1024.0,1626,2.2e-06,0.0
3.8594731999999996,Write,13532674000.0,8192.0,1604,1.4e-05,0.0
3.8594872,Write,13532668000.0,5632.0,1463,7.899999999999999e-06,0.0
3.8594950999999997,Write,1885716500.0,16384.0,1385,1e-07,0.0
3.8594951999999996,Write,5938913300.0,16384.0,1383,3.6999999999999997e-06,0.0
3.8594988999999997,Write,1885716500.0,16384.0,1346,7.899999999999999e-06,0.0
3.8595067999999997,Write,1023476200.0,7680.0,1267,1.29e-05,0.0
3.8595197,Write,3154137000.0,4096.0,1139,7.2999999999999996e-06,0.0
3.859527,Write,1023475700.0,512.0,1065,1.2e-06,0.0
3.8595281999999997,Write,6172328000.0,8192.0,1054,6.5e-06,0.0
3.8595346999999998,Write,1023473150.0,2560.0,988,1e-07,0.0
3.8595347999999996,Write,1023469060.0,4096.0,987,2.2e-06,0.0
3.8595369999999996,Write,1885716500.0,4096.0,966,2.5999999999999997e-06,0.0
3.8595395999999997,Write,3154133000.0,4096.0,939,2.1e-06,0.0
3.8595417,Write,3163136000.0,4096.0,919,4e-07,0.0
3.8595420999999996,Write,3227922400.0,4096.0,914,2.2e-06,0.0
3.8595442999999996,Write,1023483900.0,4096.0,892,8e-07,0.0
3.8595450999999996,Write,3154137000.0,4096.0,885,2.2e-06,0.0
3.8595472999999996,Write,1023483900.0,4096.0,862,1e-07,0.0
3.8595473999999994,Write,1023483900.0,4096.0,861,2.4e-06,0.0
3.8595497999999995,Write,3154137000.0,4096.0,838,1.4e-06,0.0
3.8595511999999994,Write,3227922400.0,4096.0,823,2.1e-06,0.0
3.8595532999999995,Write,3154133000.0,4096.0,802,7.499999999999999e-06,0.0
3.8595607999999997,Write,1023468000.0,1024.0,728,4.1e-06,0.0
3.8595648999999996,Write,1023467500.0,512.0,686,0.0155173,0.0150934999999999
3.8750821999999996,Write,200626180.0,16384.0,1763,6.799999999999999e-06,0.0
3.8750889999999996,Write,1076269000.0,1024.0,1695,5e-07,0.0
3.8750894999999996,Write,1064435700.0,1024.0,1689,5.899999999999999e-06,0.0
3.8750953999999997,Write,211292160.0,16384.0,1630,1.64e-05,0.0
3.8751117999999996,Write,293150720.0,4096.0,1466,3.2999999999999997e-06,0.0
3.8751150999999995,Write,3154133000.0,4096.0,1433,5e-07,0.0
3.8751155999999995,Write,209457150.0,16384.0,1428,1.4e-06,0.0
3.8751169999999995,Write,200626180.0,16384.0,1414,2e-07,0.0
3.8751171999999996,Write,1042001900.0,4096.0,1413,1.1e-06,0.0
3.8751182999999996,Write,292958200.0,16384.0,1402,3.2999999999999997e-06,0.0
3.8751215999999995,Write,1068384260.0,4096.0,1369,5e-07,0.0
3.8751220999999996,Write,293138430.0,16384.0,1364,1e-06,0.0
3.8751230999999997,Write,292958200.0,16384.0,1353,6.9e-06,0.0
3.8751299999999995,Write,1160540200.0,512.0,1284,3.3999999999999996e-06,0.0
3.8751333999999997,Write,3154137000.0,4096.0,1251,9e-07,0.0
3.8751342999999996,Write,292962300.0,4096.0,1241,3.2e-06,0.0
3.8751374999999997,Write,292958200.0,4096.0,1209,6.699999999999999e-06,0.0
3.8751442,Write,1024087040.0,4096.0,1143,1.6e-06,0.0
3.8751458,Write,1160540200.0,512.0,1126,1.0899999999999999e-05,0.0
3.8751567,Write,3163144200.0,4096.0,1017,2.8999999999999998e-06,0.0
3.8751596,Write,1024091140.0,3072.0,989,4e-07,0.0
3.8751599999999997,Write,3154133000.0,4096.0,984,5.0999999999999995e-06,0.0
3.8751651,Write,1160541200.0,4096.0,933,1e-06,0.0
3.8751661,Write,3154137000.0,4096.0,924,6e-07,0.0
3.8751667,Write,1064436740.0,3072.0,918,3.1e-06,0.0
3.8751697999999997,Write,3163140000.0,4096.0,886,2.8999999999999998e-06,0.0
3.8751727,Write,200626180.0,4096.0,857,5e-07,0.0
3.8751732,Write,3154133000.0,4096.0,853,1.8e-06,0.0
3.875175,Write,3154133000.0,4096.0,835,2e-07,0.0
3.8751752,Write,3154137000.0,4096.0,833,1.5e-06,0.0
3.8751767000000004,Write,1160545300.0,4096.0,818,3e-07,0.0
3.8751770000000003,Write,292958200.0,4096.0,814,1.2999999999999998e-06,0.0
3.8751783000000004,Write,292958200.0,4096.0,801,8.4e-06,0.0
3.8751867000000004,Write,1023475700.0,512.0,718,4e-07,0.0
3.8751871,Write,1160540700.0,512.0,713,1.7186028,1.7181036250000004
5.5937899,Write,6334689300.0,4096.0,2076,0.6093594999999999,0.6087491999999991
6.2031494,Write,22728704.0,8192.0,2191,1.55e-05,0.0
6.2031649,Write,331210750.0,8192.0,2036,1.4299999999999999e-05,0.0
6.2031792,Write,1417941000.0,1536.0,1893,4e-07,0.0
6.2031796,Write,9186996000.0,24576.0,1890,2e-07,0.0
6.2031798,Write,1501065200.0,16384.0,1888,1.6999999999999998e-06,0.0
6.2031815,Write,9186996000.0,24576.0,1870,9.999999999999999e-06,0.0
6.2031915,Write,1500917800.0,24576.0,1770,4e-07,0.0
6.2031919,Write,1500917800.0,24576.0,1767,5.7e-06,0.0
6.2031976,Write,1500958700.0,8192.0,1710,1e-07,0.0
6.2031977000000005,Write,1417941000.0,1536.0,1708,9.2e-06,0.0
6.2032069000000005,Write,864067600.0,8192.0,1616,3.1e-06,0.0
6.20321,Write,1501089800.0,8192.0,1586,6.3e-06,0.0
6.2032163,Write,5770559500.0,8192.0,1522,2.2e-06,0.0
6.2032185,Write,250417150.0,8192.0,1500,2.7e-06,0.0
6.2032212,Write,663928800.0,4096.0,1474,8.3e-06,0.0
6.2032295,Write,1501065200.0,16384.0,1390,2.3e-06,0.0
6.2032318,Write,663928800.0,4096.0,1367,5.7999999999999995e-06,0.0
6.2032376000000005,Write,22982656.0,8192.0,1310,1.01e-05,0.0
6.2032477,Write,3163148300.0,4096.0,1209,4.2999999999999995e-06,0.0
6.203252,Write,1501089800.0,8192.0,1165,4.1e-06,0.0
6.2032561,Write,331210750.0,8192.0,1124,4.1e-06,0.0
6.2032602,Write,864067600.0,8192.0,1083,1e-06,0.0
6.2032612,Write,432615420.0,4096.0,1073,5e-07,0.0
6.2032617,Write,22728704.0,8192.0,1069,5e-07,0.0
6.203262199999999,Write,5770559500.0,8192.0,1064,2e-07,0.0
6.203262399999999,Write,22982656.0,8192.0,1062,3e-07,0.0
6.203262699999999,Write,1500958700.0,8192.0,1058,1.9e-06,0.0
6.203264599999999,Write,250417150.0,8192.0,1040,1.6e-06,0.0
6.203266199999999,Write,432615420.0,4096.0,1023,1.2e-05,0.0
6.203278199999999,Write,3154133000.0,4096.0,904,2.2e-06,0.0
6.203280399999999,Write,3154137000.0,4096.0,882,4.9999999999999996e-06,0.0
6.203285399999999,Write,3154133000.0,4096.0,831,2e-07,0.0
6.203285599999998,Write,3154137000.0,4096.0,829,1.0874439999999999,1.086953100000001
7.290729599999998,Read,1898643500.0,4096.0,63820,2.8186967999999997,2.817834950000003
10.109426399999997,Write,1064435700.0,1024.0,1671,1.2e-05,0.0
10.109438399999997,Write,1076269000.0,1024.0,1551,1.0399999999999999e-05,0.0
10.109448799999997,Write,200626180.0,16384.0,1448,5e-07,0.0
10.109449299999998,Write,1024087040.0,4096.0,1443,1.4e-06,0.0
10.109450699999998,Write,200953860.0,16384.0,1428,0.0,0.0
10.109450699999998,Write,1023475700.0,512.0,1428,6e-07,0.0
10.109451299999998,Write,211292160.0,16384.0,1423,1e-06,0.0
10.109452299999997,Write,200626180.0,16384.0,1412,1e-07,0.0
10.109452399999997,Write,1024086000.0,1024.0,1412,1.2999999999999998e-06,0.0
10.109453699999996,Write,1042001900.0,4096.0,1399,1.6e-06,0.0
10.109455299999995,Write,210767870.0,16384.0,1383,1.1599999999999999e-05,0.0
10.109466899999996,Write,1068384260.0,1024.0,1267,1.5e-06,0.0
10.109468399999995,Write,3154133000.0,4096.0,1252,1e-06,0.0
10.109469399999995,Write,1068385300.0,3072.0,1242,3.6e-06,0.0
10.109472999999994,Write,3154137000.0,4096.0,1206,1.03e-05,0.0
10.109483299999994,Write,1023476200.0,7680.0,1103,2.4999999999999998e-06,0.0
10.109485799999995,Write,3163152400.0,4096.0,1078,9.2e-06,0.0
10.109494999999994,Write,1023475700.0,512.0,986,6e-07,0.0
10.109495599999994,Write,1064436740.0,3072.0,980,9e-07,0.0
10.109496499999993,Write,1024091140.0,3072.0,970,4.5e-06,0.0
10.109500999999993,Write,3154133000.0,4096.0,925,4.1e-06,0.0
10.109505099999993,Write,3154137000.0,4096.0,885,1.6999999999999998e-06,0.0
10.109506799999993,Write,200626180.0,4096.0,868,0.48413199999999995,0.4836786499999992
10.593638799999994,Write,3163156500.0,36864.0,3267,0.000233,0.0
10.593871799999993,Write,3154137000.0,4096.0,937,1.03e-05,0.0
10.593882099999993,Write,3154124800.0,4096.0,833,0.4061397,0.4056757749999982
11.000021799999994,Write,1612193800.0,4096.0,1910,0.9999827,0.9995181499999996
12.000004499999994,Write,8477757400.0,4096.0,2020,0.9999907,0.999537399999998
12.999995199999994,Write,11812225000.0,4096.0,2048,0.7187422,0.7183011499999999
13.718737399999993,Write,835952640.0,8192.0,2081,1.98e-05,0.0
13.718757199999994,Write,5770658000.0,16384.0,1883,1.6e-06,0.0
13.718758799999993,Write,5770633000.0,8192.0,1867,1.33e-05,0.0
13.718772099999994,Write,702128100.0,1536.0,1733,1.4e-06,0.0
13.718773499999994,Write,702128100.0,1536.0,1719,1.64e-05,0.0
13.718789899999994,Write,1609121800.0,8192.0,1555,4.8e-06,0.0
13.718794699999993,Write,5770682400.0,8192.0,1507,1.2499999999999999e-05,0.0
13.718807199999993,Write,5770658000.0,16384.0,1383,1.5e-06,0.0
13.718808699999993,Write,1316483100.0,4096.0,1367,0.0,0.0
13.718808699999993,Write,1316483100.0,4096.0,1368,2.1e-06,0.0
13.718810799999993,Write,1159499800.0,8192.0,1346,4e-07,0.0
13.718811199999992,Write,3154133000.0,4096.0,1342,9.6e-06,0.0
13.718820799999992,Write,3163193300.0,4096.0,1247,6.5e-06,0.0
13.718827299999992,Write,980865000.0,8192.0,1181,3.2999999999999997e-06,0.0
13.718830599999992,Write,5770592000.0,8192.0,1148,1.4e-06,0.0
13.718831999999992,Write,9029505000.0,8192.0,1135,3e-07,0.0
13.718832299999992,Write,1829322800.0,8192.0,1132,1.2999999999999998e-06,0.0
13.718833599999991,Write,1829322800.0,8192.0,1119,3.9e-06,0.0
13.71883749999999,Write,1159499800.0,8192.0,1080,1e-06,0.0
13.71883849999999,Write,9029505000.0,8192.0,1070,6e-07,0.0
13.71883909999999,Write,5770608600.0,8192.0,1063,4e-07,0.0
13.718839499999989,Write,5770633000.0,8192.0,1059,3e-07,0.0
13.718839799999989,Write,1192382500.0,8192.0,1057,5e-07,0.0
13.71884029999999,Write,5770592000.0,8192.0,1052,1e-07,0.0
13.718840399999989,Write,5770682400.0,8192.0,1050,1e-07,0.0
13.718840499999988,Write,5770608600.0,8192.0,1049,3e-07,0.0
13.718840799999988,Write,1609121800.0,8192.0,1046,3e-07,0.0
13.718841099999988,Write,980865000.0,8192.0,1043,1e-07,0.0
13.718841199999988,Write,835952640.0,8192.0,1042,2.3e-06,0.0
13.718843499999988,Write,1192382500.0,8192.0,1020,1.2999999999999998e-06,0.0
13.718844799999987,Write,571084800.0,4096.0,1006,1.5e-06,0.0
13.718846299999987,Write,571084800.0,4096.0,991,1.0199999999999999e-05,0.0
13.718856499999987,Write,3154133000.0,4096.0,890,1.2999999999999998e-06,0.0
13.718857799999986,Write,3154137000.0,4096.0,877,0.2811315,0.2805863999999981
13.999989299999987,Write,177774600.0,4096.0,2043,1.0000414,0.9995450999999992
15.000030699999988,Write,6263292000.0,1536.0,1565,0.5935768,0.5931111250000026
15.593607499999987,Write,3163197400.0,36864.0,3259,0.0002319,0.0
15.593839399999986,Write,3154137000.0,4096.0,940,9.4e-06,0.0
15.593848799999986,Write,3154129000.0,4096.0,846,2.4060883,2.4056326999999995
17.999937099999986,Write,12603961000.0,4096.0,2310,9e-06,0.0
17.999946099999985,Write,1023483900.0,4096.0,2219,1.0000118,0.999506825
18.999957899999984,Write,590073860.0,4096.0,2038,0.9999745999999999,0.9994613999999988
19.999932499999986,Write,8477757400.0,8192.0,2227,0.5936388,0.5930510499999999
20.593571299999986,Write,3163234300.0,36864.0,3301,0.00023659999999999998,0.0
20.593807899999987,Write,3154133000.0,4096.0,936,9.4e-06,0.0
20.593817299999987,Write,3154124800.0,4096.0,841,0.4061374,0.4056568500000029
20.999954699999986,Write,3267240000.0,4096.0,1942,0.000103,0.0
21.000057699999985,Write,3282030600.0,4096.0,912,4.2999999999999995e-06,0.0
21.000061999999986,Write,3224608800.0,4096.0,868,1e-07,0.0
21.000062099999987,Write,3221323800.0,4096.0,867,1e-06,0.0
21.000063099999988,Write,3285921800.0,4096.0,858,0.0155474,0.0150735749999988
21.015610499999987,Write,3227648000.0,4096.0,1633,1.06e-05,0.0
21.015621099999986,Write,3229864000.0,8192.0,1526,3.71e-05,0.0
21.015658199999987,Write,3227922400.0,4096.0,1155,2.21e-05,0.0
21.015680299999985,Write,3232870400.0,4096.0,934,0.0,0.0
21.015680299999985,Write,3224842200.0,4096.0,935,3.2e-06,0.0
21.015683499999984,Write,3224903700.0,4096.0,902,1e-06,0.0
21.015684499999985,Write,3227525000.0,4096.0,892,6e-07,0.0
21.015685099999985,Write,3260215300.0,4096.0,886,2.1e-06,0.0
21.015687199999984,Write,3224940500.0,4096.0,865,1e-06,0.0
21.015688199999985,Write,3224871000.0,4096.0,856,0.9842479999999999,0.983602000000003
21.999936199999986,Write,9102017000.0,4096.0,2063,1.0000027999999999,0.9994336250000028
22.999938999999987,Write,13523419000.0,2560.0,1970,0.9999880999999999,0.9994547499999988
23.999927099999987,Write,1351807000.0,4096.0,2026,0.9999267,0.9994025499999988
24.999853799999986,Write,1564618800.0,4096.0,2694,6.28e-05,0.0
24.999916599999985,Write,1024102400.0,4096.0,2067,7e-05,0.0
24.999986599999986,Write,1511247900.0,4096.0,1367,3.43e-05,0.0
25.000020899999985,Write,1518841900.0,4096.0,1023,4.7e-06,0.0
25.000025599999987,Write,1336467500.0,4096.0,976,0.5935163,0.5929911500000021
25.593541899999988,Write,3163271200.0,36864.0,3276,0.0002328,0.0
25.593774699999987,Write,3154137000.0,4096.0,947,9.999999999999999e-06,0.0
25.593784699999986,Write,3154129000.0,4096.0,848,3.4061141,3.4055037500000007
28.999898799999986,Write,6263292000.0,1536.0,1988,1.5937302,1.5932474500000002
30.593628999999986,Write,1612193800.0,4096.0,2085,1.4218709999999999,1.4213350749999998
32.01549999999999,Write,8477761500.0,4096.0,2033,0.9999448,0.9993924
33.01544479999999,Write,3163308000.0,12288.0,2521,0.000156,0.0
33.01560079999999,Write,3154133000.0,4096.0,962,7.2e-06,0.0
33.015607999999986,Write,6334689300.0,4096.0,889,1.9998581999999998,1.9992741500000024
35.015466199999985,Write,8477761500.0,8192.0,2180,0.5780092,0.5772232750000003
35.59347539999998,Write,3163320300.0,36864.0,3300,0.0002374,0.0
35.593712799999984,Write,3154137000.0,4096.0,927,8.599999999999999e-06,0.0
35.593721399999986,Write,3154124800.0,4096.0,840,2.4217277999999998,2.4211411750000016
38.015449199999985,Write,11812225000.0,4096.0,2157,0.2291599,0.2285880249999961
38.244609099999984,Read,8316567600.0,4096.0,54293,0.005267399999999999,0.0044125500000012
38.249876499999985,Write,13575025000.0,4096.0,1620,8.879999999999999e-05,0.0
38.249965299999985,Write,13574988000.0,512.0,732,1.3435971,1.343165025000003
39.59356239999998,Write,1609130000.0,8192.0,2175,6.5e-06,0.0
39.59356889999998,Write,1417941000.0,1536.0,2109,3.46e-05,0.0
39.59360349999998,Write,663928800.0,4096.0,1764,2.8e-06,0.0
39.593606299999976,Write,1744355300.0,24576.0,1736,1e-07,0.0
39.59360639999998,Write,1744355300.0,24576.0,1734,3e-07,0.0
39.59360669999998,Write,1417941000.0,1536.0,1732,1.74e-05,0.0
39.59362409999998,Write,6153113600.0,16384.0,1557,1.56e-05,0.0
39.593639699999976,Write,3154137000.0,4096.0,1401,7e-07,0.0
39.59364039999998,Write,663928800.0,4096.0,1395,0.0,0.0
39.59364039999998,Write,6153023500.0,16384.0,1394,3e-07,0.0
39.59364069999998,Write,6153023500.0,16384.0,1392,3e-07,0.0
39.593640999999984,Write,9186996000.0,8192.0,1388,0.0,0.0
39.593640999999984,Write,6153113600.0,16384.0,1389,4.9e-06,0.0
39.593645899999984,Write,432615420.0,4096.0,1340,4.9e-06,0.0
39.593650799999985,Write,1609162800.0,8192.0,1290,5.5e-06,0.0
39.593656299999985,Write,3154133000.0,4096.0,1236,7.2e-06,0.0
39.593663499999984,Write,9186996000.0,8192.0,1163,9.2e-06,0.0
39.593672699999985,Write,1609162800.0,8192.0,1072,1e-06,0.0
39.59367369999998,Write,1609130000.0,8192.0,1061,3e-07,0.0
39.593673999999986,Write,6153089000.0,8192.0,1059,0.0,0.0
39.593673999999986,Write,6153089000.0,8192.0,1058,4e-07,0.0
39.59367439999998,Write,1744388100.0,8192.0,1055,7e-07,0.0
39.593675099999984,Write,1744388100.0,8192.0,1048,4e-07,0.0
39.59367549999998,Write,1744412700.0,8192.0,1043,4e-07,0.0
39.59367589999998,Write,1744412700.0,8192.0,1040,2.4999999999999998e-06,0.0
39.59367839999998,Write,432615420.0,4096.0,1015,1.3199999999999999e-05,0.0
39.59369159999998,Write,3154137000.0,4096.0,883,2.3e-06,0.0
39.59369389999998,Write,3154133000.0,4096.0,859,0.9997381,0.9992667499999984
40.59343199999998,Write,3163357200.0,40960.0,3415,0.0002455,0.0
40.59367749999998,Write,3154133000.0,4096.0,959,1.12e-05,0.0
40.59368869999998,Write,3154129000.0,4096.0,847,1.7903342,1.7898654750000007
42.38402289999998,Read,8477778000.0,32768.0,66141,0.6313362,0.6223993749999989
43.015359099999976,Write,3260473300.0,20480.0,2738,0.00012429999999999999,0.0
43.01548339999998,Write,3262017500.0,4096.0,1496,8e-07,0.0
43.01548419999998,Write,3251716000.0,4096.0,1488,1.2e-06,0.0
43.01548539999998,Write,3262128000.0,16384.0,1475,1.2e-06,0.0
43.01548659999998,Write,3241185300.0,4096.0,1463,2.5999999999999997e-06,0.0
43.01548919999998,Write,3244531700.0,4096.0,1437,6.799999999999999e-06,0.0
43.015495999999985,Write,3261743000.0,4096.0,1370,2.1e-06,0.0
43.01549809999999,Write,3229864000.0,8192.0,1349,1.3e-05,0.0
43.01551109999999,Write,3251794000.0,4096.0,1218,2.1e-06,0.0
43.015513199999994,Write,3262148600.0,4096.0,1198,3e-06,0.0
43.01551619999999,Write,3236053000.0,4096.0,1168,3e-07,0.0
43.0155165,Write,3244765200.0,4096.0,1164,7e-07,0.0
43.0155172,Write,3247497200.0,4096.0,1157,1.2e-06,0.0
43.0155184,Write,3262050300.0,8192.0,1146,3.2999999999999997e-06,0.0
43.0155217,Write,3236073500.0,4096.0,1112,3.9e-06,0.0
43.015525600000004,Write,3261726700.0,4096.0,1073,8.4e-06,0.0
43.015534,Write,3227914200.0,4096.0,989,1e-07,0.0
43.0155341,Write,3261509600.0,4096.0,988,3.2999999999999997e-06,0.0
43.01553740000001,Write,3224940500.0,4096.0,955,3.1e-06,0.0
43.01554050000001,Write,3261386800.0,4096.0,924,2e-07,0.0
43.01554070000001,Write,3261522000.0,4096.0,922,9e-07,0.0
43.01554160000001,Write,3224465400.0,4096.0,914,5e-07,0.0
43.01554210000001,Write,3262169000.0,4096.0,909,9e-07,0.0
43.015543000000015,Write,3227648000.0,4096.0,899,1.1e-06,0.0
43.015544100000014,Write,3261698000.0,4096.0,889,4e-07,0.0
43.01554450000001,Write,3241988000.0,4096.0,884,1e-06,0.0
43.01554550000001,Write,3261452300.0,4096.0,874,1.1e-06,0.0
43.01554660000001,Write,3261436000.0,4096.0,864,4e-07,0.0
43.015547000000005,Write,3261706200.0,4096.0,859,0.22893249999999998,0.2284120499999993
43.244479500000004,Read,5548069000.0,8192.0,55270,0.7709663999999999,0.770103674999998
44.0154459,Write,251133950.0,4096.0,1806,0.9999988999999999,0.9994769249999984
45.015444800000004,Write,1455263700.0,4096.0,1754,0.5779715,0.5775128000000015
45.5934163,Write,3163398100.0,36864.0,3251,0.0002284,0.0
45.5936447,Write,3154137000.0,4096.0,967,1.0899999999999999e-05,0.0
45.5936556,Write,3154124800.0,4096.0,858,1.4217571,1.4213108999999986
47.0154127,Write,6263292000.0,3072.0,1947,1.9999612,1.99949
49.0153739,Write,12603961000.0,4608.0,2206,0.9998444,0.9993437999999986
50.0152183,Write,8477765600.0,36864.0,3699,0.5782834,0.5772212750000011
50.5935017,Write,3227648000.0,4096.0,2078,4.9998483,4.999375599999999
55.59335,Write,3163435000.0,36864.0,3274,0.000234,0.0
55.593584,Write,3154133000.0,4096.0,935,9.499999999999999e-06,0.0
55.5935935,Write,3154129000.0,4096.0,839,0.3905298,0.3900060000000037
55.9841233,Write,1023475700.0,512.0,1767,2.5999999999999997e-06,0.0
55.9841259,Write,200626180.0,16384.0,1740,1.44e-05,0.0
55.9841403,Write,1042001900.0,1024.0,1597,1.96e-05,0.0
55.9841599,Write,1024086000.0,1024.0,1400,2.1e-06,0.0
55.984162000000005,Write,9380631000.0,16384.0,1379,1.4e-06,0.0
55.98416340000001,Write,5976707000.0,16384.0,1365,1e-07,0.0
55.98416350000001,Write,200626180.0,16384.0,1364,1.2999999999999998e-06,0.0
55.98416480000001,Write,1024091140.0,3072.0,1352,9.7e-06,0.0
55.98417450000001,Write,3154133000.0,4096.0,1255,6.5999999999999995e-06,0.0
55.98418110000001,Write,3163472000.0,4096.0,1188,7e-07,0.0
55.98418180000001,Write,1064435700.0,1024.0,1181,2.5999999999999997e-06,0.0
55.98418440000001,Write,1024087040.0,4096.0,1156,7.499999999999999e-06,0.0
55.98419190000001,Write,1023476200.0,7680.0,1080,1.3599999999999999e-05,0.0
55.984205500000016,Write,1023475700.0,512.0,944,4.4e-06,0.0
55.98420990000002,Write,1042002940.0,3072.0,900,8e-07,0.0
55.98421070000002,Write,3154137000.0,4096.0,893,1e-07,0.0
55.98421080000002,Write,3154137000.0,4096.0,892,4.2e-06,0.0
55.98421500000002,Write,200626180.0,4096.0,850,3.5e-06,0.0
55.98421850000002,Write,3154133000.0,4096.0,814,1.0311215999999999,1.030535799999999
57.01534010000002,Write,6263292000.0,4096.0,2033,1.9999736,1.9994976249999952
59.015313700000014,Write,8477798400.0,4096.0,2169,0.7656197,0.7650817250000005
59.780933400000016,Write,17625088.0,1536.0,2173,0.8125110999999999,0.8120216500000009
60.59344450000002,Write,590073860.0,4096.0,2010,4.9998282,4.999276324999997
65.59327270000001,Write,3163476000.0,40960.0,3407,0.0158718,0.0147636749999999
65.60914450000001,Write,3154137000.0,4096.0,938,9.6e-06,0.0
65.60915410000001,Write,3154124800.0,4096.0,843,1.4060896999999999,1.405576199999999
67.01524380000001,Write,8477798400.0,8192.0,2356,2.6093736,2.60880985
69.6246174,Write,331210750.0,8192.0,2203,2.44e-05,0.0
69.6246418,Write,6142021600.0,16384.0,1959,1.3399999999999999e-05,0.0
69.6246552,Write,702128100.0,1536.0,1825,7.2e-06,0.0
69.6246624,Write,6153277400.0,8192.0,1752,5e-07,0.0
69.6246629,Write,702128100.0,1536.0,1748,5.199999999999999e-06,0.0
69.62466810000001,Write,5514076000.0,16384.0,1696,1.89e-05,0.0
69.62468700000001,Write,6153138000.0,16384.0,1506,9e-06,0.0
69.62469600000001,Write,1316483100.0,4096.0,1417,1.6999999999999998e-06,0.0
69.62469770000001,Write,1316483100.0,4096.0,1400,9e-07,0.0
69.62469860000002,Write,6153138000.0,16384.0,1390,4e-07,0.0
69.62469900000002,Write,6142021600.0,16384.0,1387,3e-07,0.0
69.62469930000002,Write,5514076000.0,16384.0,1384,3.1e-06,0.0
69.62470240000002,Write,1159499800.0,8192.0,1352,1.69e-05,0.0
69.62471930000002,Write,6153171000.0,8192.0,1184,1.2e-06,0.0
69.62472050000002,Write,1159499800.0,8192.0,1171,6e-07,0.0
69.62472110000003,Write,864067600.0,8192.0,1166,1.2999999999999998e-06,0.0
69.62472240000002,Write,5514043400.0,8192.0,1152,1.1e-06,0.0
69.62472350000003,Write,3154133000.0,4096.0,1141,2.8e-06,0.0
69.62472630000003,Write,6153220000.0,8192.0,1114,4e-06,0.0
69.62473030000004,Write,6153220000.0,8192.0,1073,1.6999999999999998e-06,0.0
69.62473200000004,Write,5514043400.0,8192.0,1057,1e-07,0.0
69.62473210000003,Write,864067600.0,8192.0,1056,5e-07,0.0
69.62473260000003,Write,6153171000.0,8192.0,1051,1.1e-06,0.0
69.62473370000004,Write,6153277400.0,8192.0,1039,1e-07,0.0
69.62473380000003,Write,331210750.0,8192.0,1039,1.2999999999999998e-06,0.0
69.62473510000002,Write,571084800.0,4096.0,1026,1.1e-06,0.0
69.62473620000003,Write,571084800.0,4096.0,1014,2.3e-06,0.0
69.62473850000003,Write,3154137000.0,4096.0,991,1.2299999999999999e-05,0.0
69.62475080000003,Write,3154137000.0,4096.0,868,8e-07,0.0
69.62475160000002,Write,3154133000.0,4096.0,860,0.4842786,0.4838139749999971
70.10903020000002,Write,1023475700.0,512.0,1794,6e-06,0.0
70.10903620000002,Write,1064435700.0,1024.0,1734,2.6099999999999997e-05,0.0
70.10906230000002,Write,1076269000.0,1024.0,1473,2.2e-06,0.0
70.10906450000002,Write,1042001900.0,4096.0,1451,5e-07,0.0
70.10906500000002,Write,200626180.0,16384.0,1445,1.6999999999999998e-06,0.0
70.10906670000001,Write,210767870.0,16384.0,1429,1.2e-06,0.0
70.10906790000001,Write,200626180.0,16384.0,1417,3e-07,0.0
70.10906820000001,Write,1024086000.0,1024.0,1413,1.4e-06,0.0
70.10906960000001,Write,200953860.0,16384.0,1400,1e-06,0.0
70.10907060000001,Write,211292160.0,16384.0,1390,2.05e-05,0.0
70.10909110000001,Write,1024087040.0,4096.0,1184,1.2999999999999998e-06,0.0
70.10909240000001,Write,1068384260.0,1024.0,1172,2.4e-06,0.0
70.10909480000001,Write,1068385300.0,3072.0,1147,2e-07,0.0
70.10909500000001,Write,3154137000.0,4096.0,1146,7e-07,0.0
70.10909570000001,Write,3154133000.0,4096.0,1139,1.5e-06,0.0
70.10909720000001,Write,3163517000.0,4096.0,1124,3.1e-06,0.0
70.10910030000001,Write,1023476200.0,7680.0,1093,2e-06,0.0
70.1091023,Write,3154133000.0,4096.0,1072,4e-06,0.0
70.10910630000001,Write,1023475700.0,512.0,1032,4e-06,0.0
70.10911030000001,Write,1024091140.0,3072.0,992,1.06e-05,0.0
70.10912090000001,Write,1064436740.0,3072.0,887,3e-06,0.0
70.10912390000001,Write,3154137000.0,4096.0,857,4e-07,0.0
70.10912430000002,Write,200626180.0,4096.0,853,0.49987929999999997,0.4993598999999992
70.60900360000002,Write,3224940500.0,4096.0,2028,0.4062629,0.4057700749999998
71.01526650000002,Write,6263292000.0,4608.0,1872,0.9999657,0.9993082
72.01523220000003,Write,3260215300.0,4096.0,2152,0.00011009999999999999,0.0
72.01534230000003,Write,3229864000.0,8192.0,1050,1.12e-05,0.0
72.01535350000003,Write,3154133000.0,4096.0,939,9e-07,0.0
72.01535440000004,Write,3232870400.0,4096.0,930,5.0999999999999995e-06,0.0
72.01535950000003,Write,3227922400.0,4096.0,878,1.6e-06,0.0
72.01536110000004,Write,3227648000.0,4096.0,862,3e-07,0.0
72.01536140000003,Write,3224940500.0,4096.0,860,2.8e-06,0.0
72.01536420000004,Write,3224608800.0,4096.0,832,0.9997988999999999,0.999292425000001
73.01516310000004,Write,6334689300.0,4096.0,2779,3.36e-05,0.0
73.01519670000003,Write,1023483900.0,4096.0,2443,1.3399999999999999e-05,0.0
73.01521010000003,Write,11812225000.0,4096.0,2309,2.5936540999999997,2.5931624999999983
75.60886420000003,Write,3163521000.0,36864.0,3102,0.00020349999999999999,0.0
75.60906770000003,Write,3154137000.0,4096.0,1067,2.27e-05,0.0
75.60909040000003,Write,3154129000.0,4096.0,839,3.2029446,3.2024342250000006
78.81203500000002,Write,12603965000.0,1536.0,2438,3.0799999999999996e-05,0.0
78.81206580000003,Write,8477802500.0,4096.0,2131,4.9998418,4.999237849999999
83.81190760000003,Write,3163558000.0,36864.0,3392,0.00023219999999999998,0.0
83.81213980000003,Write,3154133000.0,4096.0,1070,2.44e-05,0.0
83.81216420000003,Write,3154124800.0,4096.0,827,0.9998804,0.9993491750000004
84.81204460000002,Write,6263296000.0,1024.0,1959,3.9999673,3.9995244000000008
88.81201190000002,Write,3232870400.0,4096.0,2030,4.9998359,4.999346449999999
93.81184780000001,Write,3163594800.0,36864.0,3350,0.00021999999999999998,0.0
93.81206780000001,Write,3154137000.0,4096.0,1150,3.1899999999999996e-05,0.0
93.8120997,Write,3154129000.0,4096.0,831,0.9997954,0.9993004250000012
94.8118951,Write,3246813200.0,4096.0,2814,6.58e-05,0.0
94.8119609,Write,11812225000.0,4096.0,2155,0.0001229,0.0
94.8120838,Write,3260215300.0,4096.0,926,4.2999999999999995e-06,0.0
94.8120881,Write,3224948700.0,4096.0,884,4.1e-06,0.0
94.8120922,Write,3224940500.0,4096.0,842,0.9998714,0.999292650000001
95.8119636,Write,8477802500.0,4096.0,2064,1.5569908,1.5564231499999983
97.36895439999999,Read,2671440000.0,4096.0,57057,1.4429435,1.4419829750000035
98.81189789999999,Write,3163631600.0,36864.0,2529,7.04e-05,0.0
98.81196829999999,Write,6263296000.0,1024.0,1825,1.96e-05,0.0
98.81198789999999,Write,3154133000.0,4096.0,1629,6.87e-05,0.0
98.81205659999999,Write,3154124800.0,4096.0,943,0.8435977,0.8430594500000017
99.6556543,Write,6018031600.0,16384.0,2412,2.58e-05,0.0
99.6556801,Write,1609130000.0,8192.0,2154,3.6999999999999997e-06,0.0
99.65568379999999,Write,1417941000.0,1536.0,2116,3.3299999999999996e-05,0.0
99.65571709999999,Write,663928800.0,4096.0,1784,2.7e-06,0.0
99.65571979999999,Write,1417941000.0,1536.0,1756,1.4599999999999999e-05,0.0
99.65573439999999,Write,6018105300.0,8192.0,1610,2.05e-05,0.0
99.65575489999999,Write,9186996000.0,8192.0,1406,1e-07,0.0
99.65575499999998,Write,6018031600.0,16384.0,1404,1.6999999999999998e-06,0.0
99.65575669999998,Write,5514182700.0,16384.0,1388,2e-07,0.0
99.65575689999999,Write,663928800.0,4096.0,1386,7e-07,0.0
99.65575759999999,Write,5514182700.0,16384.0,1379,2.2e-06,0.0
99.65575979999998,Write,432615420.0,4096.0,1356,2.1e-06,0.0
99.65576189999999,Write,3163668500.0,4096.0,1335,6.5e-06,0.0
99.65576839999999,Write,6018171000.0,8192.0,1271,8.8e-06,0.0
99.65577719999999,Write,1609162800.0,8192.0,1182,2e-07,0.0
99.65577739999999,Write,3154137000.0,4096.0,1181,3.6999999999999997e-06,0.0
99.65578109999998,Write,5514109000.0,8192.0,1144,6e-07,0.0
99.65578169999999,Write,3154137000.0,4096.0,1138,5e-07,0.0
99.65578219999999,Write,6018121700.0,8192.0,1132,2.8999999999999998e-06,0.0
99.65578509999999,Write,9186996000.0,8192.0,1103,2.7e-06,0.0
99.65578779999998,Write,1609130000.0,8192.0,1077,6e-07,0.0
99.65578839999999,Write,5514158000.0,8192.0,1070,2e-07,0.0
99.6557886,Write,1609162800.0,8192.0,1069,1.2999999999999998e-06,0.0
99.65578989999999,Write,5514109000.0,8192.0,1056,5e-07,0.0
99.65579039999999,Write,6074646500.0,8192.0,1051,3e-07,0.0
99.65579069999998,Write,6018105300.0,8192.0,1047,2e-07,0.0
99.65579089999999,Write,5514158000.0,8192.0,1046,1e-07,0.0
99.65579099999998,Write,6074646500.0,8192.0,1045,3e-07,0.0
99.65579129999998,Write,6018121700.0,8192.0,1042,3e-07,0.0
99.65579159999997,Write,6018171000.0,8192.0,1038,2.8999999999999998e-06,0.0
99.65579449999997,Write,432615420.0,4096.0,1009,1.3899999999999999e-05,0.0
99.65580839999997,Write,3154133000.0,4096.0,871,0.015577599999999999,0.0151081749999969
99.67138599999997,Write,3154133000.0,4096.0,1344,1.1405455,1.1400452499999982
100.81193149999997,Write,6334689300.0,4096.0,2065,2.9998660999999998,2.9993929249999987
103.81179759999998,Write,3163672600.0,32768.0,3213,0.00022879999999999998,0.0
103.81202639999998,Write,3154137000.0,4096.0,924,7.899999999999999e-06,0.0
103.81203429999998,Write,3154129000.0,4096.0,846,0.9999038,0.9993224249999988
104.81193809999998,Write,630075400.0,4096.0,1743,3.9998973999999996,3.9992982500000016
108.81183549999997,Write,3163705300.0,36864.0,2514,5.4499999999999997e-05,0.0
108.81188999999998,Write,12603965000.0,2048.0,1968,0.00010549999999999999,0.0
108.81199549999998,Write,3154133000.0,4096.0,914,9.1e-06,0.0
108.81200459999998,Write,3154124800.0,4096.0,822,3.9998475,3.9993542500000023
112.81185209999998,Write,6263296000.0,3072.0,2092,0.9999983,0.9995088999999998
113.81185039999998,Write,3163742200.0,4096.0,2045,0.00011399999999999999,0.0
113.81196439999998,Write,3224940500.0,4096.0,904,0.9998787,0.9994058999999956
114.81184309999998,Write,3227648000.0,4096.0,2054,9.54e-05,0.0
114.81193849999998,Write,3229864000.0,8192.0,1099,2.31e-05,0.0
114.81196159999999,Write,3232870400.0,4096.0,869,8e-07,0.0
114.81196239999998,Write,3260215300.0,4096.0,861,3.9997833,3.999318800000001
118.81174569999999,Write,3163746300.0,36864.0,2771,8.329999999999999e-05,0.0
118.81182899999999,Write,1444548600.0,2560.0,1938,0.0001031,0.0
118.81193209999999,Write,3154137000.0,4096.0,907,9.7e-06,0.0
118.8119418,Write,3154129000.0,4096.0,810,0.9998697999999999,0.9993461749999996
119.8118116,Write,369532930.0,2560.0,2048,1.0000006,0.9995277500000022
120.81181219999999,Write,1444548600.0,2560.0,1979,0.1875189,0.187000900000003
120.99933109999999,Write,1064435700.0,1024.0,1777,1.9999999999999998e-05,0.0
120.9993511,Write,1023475700.0,512.0,1578,7.1e-06,0.0
120.9993582,Write,200626180.0,16384.0,1506,3.2e-06,0.0
120.9993614,Write,1042002940.0,3072.0,1474,4e-06,0.0
120.9993654,Write,5976707000.0,16384.0,1435,1.5e-06,0.0
120.9993669,Write,1024086000.0,1024.0,1419,2.4999999999999998e-06,0.0
120.99936939999999,Write,9380631000.0,16384.0,1395,8e-07,0.0
120.99937019999999,Write,200626180.0,16384.0,1386,1.88e-05,0.0
120.999389,Write,1042001900.0,1024.0,1198,2e-07,0.0
120.9993892,Write,1024087040.0,4096.0,1197,1.9e-06,0.0
120.9993911,Write,3163783200.0,4096.0,1177,6.5999999999999995e-06,0.0
120.9993977,Write,3154133000.0,4096.0,1112,2e-06,0.0
120.9993997,Write,1023476200.0,7680.0,1091,7.8e-06,0.0
120.9994075,Write,1023475700.0,512.0,1014,7.499999999999999e-06,0.0
120.999415,Write,3154137000.0,4096.0,939,2.5999999999999997e-06,0.0
120.9994176,Write,3154137000.0,4096.0,912,2e-07,0.0
120.9994178,Write,1024091140.0,3072.0,910,2.5999999999999997e-06,0.0
120.9994204,Write,3154133000.0,4096.0,885,4.4e-06,0.0
120.9994248,Write,200626180.0,4096.0,841,2.8123560999999997,2.8118895999999984
123.8117809,Write,11812225000.0,4096.0,2099,2.1496048,2.149120475
125.96138570000001,Read,329748480.0,1536.0,68413,0.0065734999999999995,0.0057240499999986
125.96795920000001,Write,3163787300.0,28672.0,2679,0.0001752,0.0
125.96813440000001,Write,3154133000.0,4096.0,927,0.0104612,0.0099676249999998
125.9785956,Read,11933585000.0,4096.0,208813,0.0153642,0.0145734499999971
125.9939598,Read,579637250.0,32768.0,55170,0.0009364999999999999,0.0
125.9948963,Read,580390900.0,32768.0,45806,0.013541899999999999,0.0053629250000019
126.0084382,Read,11933585000.0,20992.0,66636,0.0063079,0.0
126.0147461,Read,11933590000.0,8192.0,3556,2.35e-05,0.0
126.0147696,Read,11933598000.0,4096.0,3322,2.88e-05,0.0
126.01479839999999,Read,11933602000.0,4096.0,3033,0.0122464,0.0112700500000042
126.02704479999998,Read,11932951000.0,16384.0,36819,0.000815,0.0
126.02785979999999,Read,580186100.0,32768.0,28669,0.0006483,0.0
126.02850809999998,Read,11923767000.0,32768.0,22186,0.0017775999999999998,0.0
126.03028569999998,Read,11932926000.0,16384.0,4410,0.009890699999999999,0.0016979999999969
126.04017639999998,Read,295236600.0,32768.0,61751,0.0025942,0.0
126.04277059999998,Read,11923812000.0,32768.0,35810,0.0022216,0.0
126.04499219999998,Read,11932520000.0,32768.0,169843,0.0004192,0.0
126.04541139999998,Read,11923878000.0,32768.0,9402,6.709999999999999e-05,0.0
126.04547849999997,Read,11923845000.0,32768.0,8731,0.0002759,0.0
126.04575439999998,Read,11923771000.0,32768.0,5972,3.23e-05,0.0
126.04578669999998,Read,11932893000.0,32768.0,5649,0.0001485,0.0
126.04593519999997,Read,11932967000.0,16384.0,4163,3.2e-06,0.0
126.04593839999997,Read,11933028000.0,16384.0,4132,0.0239141,0.0151662749999987
126.06985249999997,Read,11932656000.0,32768.0,77488,0.0062033999999999995,0.0
126.07605589999997,Read,11932574000.0,32768.0,15455,0.0003432,0.0
126.07639909999997,Read,11932611000.0,32768.0,12023,0.0006628,0.0
126.07706189999998,Read,11932750000.0,32768.0,5394,2.1e-06,0.0
126.07706399999998,Read,11932860000.0,32768.0,5374,5e-07,0.0
126.07706449999998,Read,11932463000.0,32768.0,5368,9.299999999999999e-06,0.0
126.07707379999998,Read,11932824000.0,32768.0,5275,1e-07,0.0
126.07707389999997,Read,11932783000.0,32768.0,5275,8.3e-06,0.0
126.07708219999998,Read,11932713000.0,32768.0,5192,0.0001087,0.0
126.07719089999998,Read,11932991000.0,16384.0,4104,7.499999999999999e-06,0.0
126.07719839999997,Read,11933012000.0,16384.0,4030,7.23e-05,0.0
126.07727069999997,Read,11932983000.0,8192.0,3306,4.03e-05,0.0
126.07731099999997,Read,11932606000.0,4096.0,2904,0.0111039,0.0102616000000004
126.08841489999996,Read,11935728000.0,32768.0,48114,0.0002648,0.0
126.08867969999996,Read,11933344000.0,29184.0,45465,0.0040108,0.0
126.09269049999996,Read,11933471000.0,32768.0,5357,1.05e-05,0.0
126.09270099999996,Read,11935732000.0,24576.0,5253,0.0001215,0.0
126.09282249999997,Read,11933528000.0,16384.0,4038,1.62e-05,0.0
126.09283869999997,Read,11935764000.0,12288.0,3876,1.6999999999999998e-06,0.0
126.09284039999997,Read,11933348000.0,12288.0,3859,2.5699999999999998e-05,0.0
126.09286609999997,Read,11935756000.0,8192.0,3602,4.2199999999999996e-05,0.0
126.09290829999996,Read,11933360000.0,4096.0,3180,2.21e-05,0.0
126.09293039999996,Read,11933364000.0,4096.0,2958,0.008877,0.0078252500000006
126.10180739999996,Read,11932496000.0,24576.0,70437,0.004886199999999999,0.0
126.10669359999996,Read,11957297000.0,2048.0,21576,0.0016289,0.0007049999999972
126.10832249999996,Read,11935810000.0,32768.0,5286,7.1e-06,0.0
126.10832959999996,Read,11933495000.0,32768.0,5216,3.68e-05,0.0
126.10836639999997,Read,11935814000.0,28672.0,4848,6.3e-05,0.0
126.10842939999996,Read,11933475000.0,20480.0,4217,2.62e-05,0.0
126.10845559999996,Read,11933549000.0,16384.0,3956,5.68e-05,0.0
126.10851239999995,Read,11935842000.0,8192.0,3387,9.6e-06,0.0
126.10852199999995,Read,11935850000.0,8192.0,3291,1.89e-05,0.0
126.10854089999995,Read,11933544000.0,4096.0,3102,0.012492,0.0116853500000023
126.12103289999995,Read,11956797000.0,65536.0,34431,0.0011394999999999999,0.0
126.12217239999994,Read,11956933000.0,65536.0,23037,9.71e-05,0.0
126.12226949999994,Read,11957129000.0,65536.0,22065,0.00027529999999999997,0.0
126.12254479999994,Read,11956998000.0,65536.0,19313,0.0002789,0.0
126.12282369999994,Read,11957064000.0,65536.0,16523,7.73e-05,0.0
126.12290099999994,Read,11956867000.0,65536.0,15751,0.0012508999999999999,0.0
126.12415189999994,Read,11956863000.0,4096.0,3241,0.013991199999999999,0.0129314000000007
126.13814309999995,Read,11957195000.0,65536.0,19578,0.0014624,0.0
126.13960549999994,Read,11957260000.0,36864.0,4955,0.0001352,0.0
126.13974069999995,Read,11962257000.0,2560.0,159851,0.0111959,0.010232650000001
126.15093659999995,Read,11958907000.0,3072.0,47893,0.0038266999999999997,0.0027027250000003
126.15476329999996,Read,11962159000.0,65536.0,9626,0.0003705,0.0
126.15513379999996,Read,11962225000.0,32768.0,5921,0.0116101,0.0017851499999988
126.16674389999996,Read,11942380000.0,40960.0,46068,0.0013567,0.0
126.16810059999996,Read,11942420000.0,512.0,32502,0.002708,0.001670225000004
126.17080859999996,Read,11958878000.0,28672.0,5421,0.0087067,0.0003350249999994
126.17951529999996,Read,11958084000.0,1536.0,74603,0.0006102,0.0
126.18012549999996,Read,11895034000.0,512.0,68502,0.0043066,0.0034963999999981
126.18443209999997,Read,11960189000.0,3584.0,25436,0.0021487,0.0012723000000016
126.18658079999997,Read,11895022000.0,12288.0,3949,6.2e-06,0.0
126.18658699999997,Read,11932643000.0,12288.0,3886,7.609999999999999e-05,0.0
126.18666309999998,Read,11960185000.0,4096.0,3125,1.74e-05,0.0
126.18668049999998,Read,11958080000.0,4096.0,2952,0.0106366,0.0098019249999998
126.19731709999998,Read,11947864000.0,4096.0,52835,0.0047786,0.003943025
126.20209569999997,Read,11932688000.0,24576.0,5049,6.81e-05,0.0
126.20216379999997,Read,11932553000.0,20480.0,4368,5.59e-05,0.0
126.20221969999997,Read,11923804000.0,8192.0,3808,3.4099999999999995e-05,0.0
126.20225379999997,Read,11947938000.0,8192.0,3468,3.48e-05,0.0
126.20228859999996,Read,11932746000.0,4096.0,3119,8.1e-06,0.0
126.20229669999996,Read,11947868000.0,4096.0,3038,4.5e-06,0.0
126.20230119999997,Read,11947934000.0,4096.0,2993,0.0094614,0.0085826000000011
126.21176259999997,Read,11947749000.0,4096.0,64629,0.0039268,0.0029826749999953
126.21568939999997,Read,11948331000.0,4096.0,25360,0.0022029,0.0013096750000013
126.21789229999997,Read,11947799000.0,8192.0,3331,4.6e-06,0.0
126.21789689999997,Read,11947811000.0,8192.0,3286,8.8e-06,0.0
126.21790569999997,Read,11947975000.0,4096.0,3198,1.1799999999999999e-05,0.0
126.21791749999997,Read,11947962000.0,4096.0,3080,2.8999999999999998e-06,0.0
126.21792039999997,Read,11947827000.0,4096.0,3051,6.3e-06,0.0
126.21792669999996,Read,11947794000.0,4096.0,2987,1.8e-06,0.0
126.21792849999997,Read,11947913000.0,4096.0,2970,2.2e-06,0.0
126.21793069999997,Read,11947819000.0,4096.0,2948,3.2e-06,0.0
126.21793389999996,Read,11947807000.0,4096.0,2916,8.5e-06,0.0
126.21794239999997,Read,11947823000.0,4096.0,2831,0.0001288,0.0
126.21807119999997,Read,11948241000.0,4096.0,1543,3.9099999999999995e-05,0.0
126.21811029999996,Read,11948245000.0,4096.0,1151,0.0072079,0.0063589499999991
126.22531819999996,Read,11947856000.0,4096.0,85321,0.0034931999999999997,0.0025912750000018
126.22881139999996,Read,11947930000.0,4096.0,50390,0.002852,0.0020025750000024
126.23166339999996,Read,11947876000.0,4096.0,21869,0.000609,0.0
126.23227239999996,Read,11947766000.0,4096.0,15780,0.0003453,0.0
126.23261769999996,Read,11947946000.0,16384.0,12326,0.0003637,0.0
126.23298139999996,Read,11947983000.0,12288.0,8689,6.76e-05,0.0
126.23304899999995,Read,11947966000.0,8192.0,8014,0.0004888,0.0
126.23353779999995,Read,11947979000.0,4096.0,3126,2.8199999999999998e-05,0.0
126.23356599999995,Read,11947889000.0,4096.0,2843,6e-07,0.0
126.23356659999996,Read,11947880000.0,4096.0,2838,0.0,0.0
126.23356659999996,Read,11947885000.0,4096.0,2837,0.0001182,0.0
126.23368479999996,Read,11947909000.0,4096.0,1655,0.005886499999999999,0.0050711000000004
126.23957129999997,Read,11948900000.0,4096.0,99039,0.006877899999999999,0.006040675000002
126.24644919999997,Read,11948839000.0,4096.0,30261,0.0027134999999999998,0.0018799749999999
126.24916269999997,Read,11948896000.0,4096.0,3125,6.2e-06,0.0
126.24916889999997,Read,11948802000.0,4096.0,3063,2e-06,0.0
126.24917089999997,Read,11948843000.0,4096.0,3043,1.33e-05,0.0
126.24918419999997,Read,11948904000.0,4096.0,2911,0.0001747,0.0
126.24935889999998,Read,11947897000.0,4096.0,1163,2.95e-05,0.0
126.24938839999997,Read,11947901000.0,4096.0,869,0.0,0.0
126.24938839999997,Read,11947893000.0,4096.0,868,0.008959199999999999,0.0081301999999986
126.25834759999998,Read,11947770000.0,4096.0,67525,0.0060165999999999996,0.0052368000000025
126.26436419999997,Read,11947831000.0,4096.0,7359,0.0003679,0.0
126.26473209999997,Read,11947782000.0,12288.0,3681,4.99e-05,0.0
126.26478199999997,Read,11948704000.0,4096.0,3182,4.4e-06,0.0
126.26478639999996,Read,11948880000.0,4096.0,3138,1.29e-05,0.0
126.26479929999996,Read,11948999000.0,4096.0,3009,9e-07,0.0
126.26480019999997,Read,11948745000.0,4096.0,2999,2.4999999999999998e-06,0.0
126.26480269999996,Read,11947778000.0,4096.0,2974,3.6999999999999997e-06,0.0
126.26480639999996,Read,11948696000.0,4096.0,2937,3.5e-06,0.0
126.26480989999996,Read,11948741000.0,4096.0,2902,3.8e-06,0.0
126.26481369999996,Read,11948700000.0,4096.0,2864,1.8e-06,0.0
126.26481549999997,Read,11948995000.0,4096.0,2846,0.0001661,0.0
126.26498159999997,Read,11947835000.0,4096.0,1185,2.98e-05,0.0
126.26501139999996,Read,11947921000.0,4096.0,888,1.6e-06,0.0
126.26501299999997,Read,11947860000.0,4096.0,872,2e-07,0.0
126.26501319999997,Read,11947848000.0,4096.0,870,2e-07,0.0
126.26501339999997,Read,11947926000.0,4096.0,867,1.2999999999999998e-06,0.0
126.26501469999997,Read,11947852000.0,4096.0,855,0.014213799999999999,0.0134051999999981
126.27922849999996,Read,11932455000.0,8192.0,14965,0.0006146999999999999,0.0
126.27984319999996,Read,11947753000.0,12288.0,8819,0.0003786,0.0
126.28022179999996,Read,11923911000.0,20480.0,5032,0.0001053,0.0
126.28032709999997,Read,11947733000.0,16384.0,3980,3.6e-06,0.0
126.28033069999996,Read,11947700000.0,16384.0,3944,6.78e-05,0.0
126.28039849999996,Read,11948831000.0,4096.0,3266,1.17e-05,0.0
126.28041019999996,Read,11947717000.0,4096.0,3149,1.2e-06,0.0
126.28041139999996,Read,11948794000.0,4096.0,3136,2.2e-06,0.0
126.28041359999996,Read,11947696000.0,4096.0,3115,8.5e-06,0.0
126.28042209999997,Read,11947692000.0,4096.0,3029,0.0001724,0.0
126.28059449999996,Read,11948286000.0,4096.0,1306,7.2e-06,0.0
126.28060169999996,Read,11947774000.0,4096.0,1233,2.8999999999999998e-06,0.0
126.28060459999996,Read,11948249000.0,4096.0,1205,1.1e-06,0.0
126.28060569999997,Read,11948319000.0,4096.0,1194,2.12e-05,0.0
126.28062689999997,Read,11948261000.0,4096.0,981,8e-06,0.0
126.28063489999997,Read,11947905000.0,4096.0,901,0.0104757,0.0095753999999985
126.29111059999997,Read,11955614000.0,4096.0,52393,0.0022158,0.0013723749999979
126.29332639999997,Read,11947532000.0,4096.0,30235,0.0008435,3.25500000022983e-05
126.29416989999997,Read,11947565000.0,4096.0,21800,0.001763,0.0009118999999997
126.29593289999997,Read,11947581000.0,4096.0,4171,0.0001114,0.0
126.29604429999996,Read,11947569000.0,4096.0,3056,2.1e-06,0.0
126.29604639999997,Read,11947721000.0,4096.0,3035,1e-07,0.0
126.29604649999996,Read,11947536000.0,4096.0,3034,5.199999999999999e-06,0.0
126.29605169999996,Read,11947729000.0,4096.0,2983,1.19e-05,0.0
126.29606359999997,Read,11947577000.0,4096.0,2863,0.009574899999999999,0.0086494500000013
126.30563849999997,Read,11956154000.0,4096.0,63364,0.0018092,0.0009889
126.30744769999997,Read,11954418000.0,4096.0,45271,0.0041955,0.0033937500000009
126.31164319999996,Read,11954409000.0,8192.0,3316,2.02e-05,0.0
126.31166339999996,Read,11948933000.0,4096.0,3114,6.1e-06,0.0
126.31166949999995,Read,11954438000.0,4096.0,3054,2e-07,0.0
126.31166969999995,Read,11954422000.0,4096.0,3052,1.2e-06,0.0
126.31167089999995,Read,11954405000.0,4096.0,3039,7.8e-06,0.0
126.31167869999996,Read,11954434000.0,4096.0,2961,0.00017869999999999998,0.0
126.31185739999997,Read,11948327000.0,4096.0,1174,0.0108854,0.0100457000000033
126.32274279999997,Read,11955569000.0,4096.0,48570,0.004031,0.0031677999999978
126.32677379999997,Read,11954430000.0,4096.0,8260,0.00048439999999999996,0.0
126.32725819999997,Read,11948888000.0,8192.0,3416,1.24e-05,0.0
126.32727059999998,Read,11947540000.0,4096.0,3291,4.8e-06,0.0
126.32727539999998,Read,11948884000.0,4096.0,3244,1.44e-05,0.0
126.32728979999997,Read,11954426000.0,4096.0,3099,0.010907499999999999,0.0100941500000012
126.33819729999998,Read,11955565000.0,4096.0,50274,0.0046989,0.003888025
126.34289619999997,Read,11955507000.0,4096.0,3284,3.6e-06,0.0
126.34289979999997,Read,11955511000.0,4096.0,3249,2.2e-06,0.0
126.34290199999997,Read,11948126000.0,4096.0,3227,1.37e-05,0.0
126.34291569999996,Read,11955495000.0,4096.0,3089,4e-07,0.0
126.34291609999997,Read,11948106000.0,4096.0,3086,8.3e-06,0.0
126.34292439999997,Read,11948110000.0,4096.0,3003,5.4e-06,0.0
126.34292979999998,Read,11955503000.0,4096.0,2948,1.13e-05,0.0
126.34294109999998,Read,11955499000.0,4096.0,2835,0.0001639,0.0
126.34310499999998,Read,11948335000.0,4096.0,1196,3.29e-05,0.0
126.34313789999997,Read,11948339000.0,4096.0,867,0.0089964,0.0081275249999981
126.35213429999997,Read,11956449000.0,4096.0,67153,0.0011773999999999999,0.000308775000001
126.35331169999998,Read,11955606000.0,4096.0,55378,0.0046321,0.0037771249999989
126.35794379999997,Read,11948835000.0,4096.0,9057,0.0005748999999999999,0.0
126.35851869999998,Read,11948093000.0,8192.0,3308,1.8599999999999998e-05,0.0
126.35853729999998,Read,11948089000.0,4096.0,3122,2e-07,0.0
126.35853749999998,Read,11948827000.0,4096.0,3121,5.6e-06,0.0
126.35854309999998,Read,11948937000.0,4096.0,3065,3.1e-06,0.0
126.35854619999998,Read,11947557000.0,4096.0,3033,8e-07,0.0
126.35854699999997,Read,11948925000.0,4096.0,3025,2e-06,0.0
126.35854899999997,Read,11948823000.0,4096.0,3005,3.5e-06,0.0
126.35855249999997,Read,11956453000.0,4096.0,2970,9e-06,0.0
126.35856149999998,Read,11948712000.0,4096.0,2880,3e-07,0.0
126.35856179999998,Read,11948818000.0,4096.0,2877,4.9e-06,0.0
126.35856669999997,Read,11948708000.0,4096.0,2828,1.2e-06,0.0
126.35856789999997,Read,11947561000.0,4096.0,2816,9.999999999999999e-06,0.0
126.35857789999997,Read,11948847000.0,32768.0,2717,0.0093274,0.0010249500000013
126.36790529999998,Read,11955610000.0,4096.0,65691,0.0062511,0.0054556000000011
126.37415639999998,Read,11955716000.0,4096.0,3181,1.06e-05,0.0
126.37416699999997,Read,11948716000.0,4096.0,3075,1.9e-06,0.0
126.37416889999997,Read,11948122000.0,4096.0,3056,3.8e-06,0.0
126.37417269999997,Read,11955765000.0,4096.0,3017,0.0068103,0.0059207000000028
126.38098299999997,Read,11961782000.0,4096.0,91164,0.004839899999999999,0.003914399999998
126.38582289999997,Read,11961819000.0,65536.0,42764,0.0025461,0.0
126.38836899999997,Read,11961758000.0,4096.0,17303,0.0010582,0.0001609250000008
126.38942719999997,Read,11961770000.0,4096.0,6722,0.0003298,0.0
126.38975699999997,Read,11961766000.0,4096.0,3424,2.6799999999999998e-05,0.0
126.38978379999998,Read,11961762000.0,4096.0,3155,8.95e-05,0.0
126.38987329999998,Read,11961778000.0,4096.0,2260,5.3e-06,0.0
126.38987859999997,Read,11961774000.0,4096.0,2208,8.36e-05,0.0
126.38996219999997,Read,11961799000.0,4096.0,1371,1.37e-05,0.0
126.38997589999997,Read,11961786000.0,4096.0,1235,9.299999999999999e-06,0.0
126.38998519999997,Read,11961795000.0,4096.0,1142,2.66e-05,0.0
126.39001179999997,Read,11961790000.0,4096.0,875,0.009634499999999999,0.0086931249999999
126.39964629999997,Read,11958800000.0,4096.0,60779,0.0038919999999999996,0.0028640500000007
126.40353829999997,Read,11958514000.0,4096.0,21860,0.0018589,0.0009028249999987
126.40539719999997,Read,11958870000.0,4096.0,3270,0.0039859,0.003078874999999
126.40938309999997,Read,11958366000.0,4096.0,119660,0.006098999999999999,0.0052065250000012
126.41548209999998,Read,11930661000.0,4096.0,58671,0.0032413999999999998,0.0023309749999992
126.41872349999997,Read,11930722000.0,32768.0,26257,0.0015323,0.0
126.42025579999996,Read,11930681000.0,32768.0,10934,0.0007603999999999999,0.0
126.42101619999997,Read,11958518000.0,4096.0,3330,2.95e-05,0.0
126.42104569999996,Read,11930665000.0,4096.0,3035,0.00855,0.0072495499999995
126.42959569999996,Read,11958403000.0,4096.0,73783,0.0010873,0.0002283000000002
126.43068299999996,Read,11929543000.0,4096.0,62910,0.0054732,0.0037704250000008
126.43615619999996,Read,11930649000.0,4096.0,8179,0.0004959,0.0
126.43665209999996,Read,11929547000.0,4096.0,3219,3.2999999999999997e-06,0.0
126.43665539999996,Read,11958862000.0,4096.0,3187,5.7999999999999995e-06,0.0
126.43666119999996,Read,11930771000.0,4096.0,3129,1.7199999999999998e-05,0.0
126.43667839999996,Read,11958505000.0,4096.0,2957,0.0091311,0.0082284250000001
126.44580949999997,Read,11931038000.0,4096.0,67895,0.0064186,0.0041733999999982
126.45222809999997,Read,11932815000.0,8192.0,3709,7.879999999999999e-05,0.0
126.45230689999997,Read,11931042000.0,4096.0,2921,0.0093417,0.0085238250000025
126.46164859999996,Read,11932942000.0,8192.0,65753,0.0047925,0.0039300250000018
126.46644109999995,Read,11955622000.0,65536.0,17828,0.0001015,0.0
126.46654259999995,Read,11955589000.0,4096.0,16813,0.0007004,0.0
126.46724299999995,Read,11949036000.0,4096.0,9808,0.0001446,0.0
126.46738759999995,Read,11955474000.0,4096.0,8362,0.00028859999999999997,0.0
126.46767619999996,Read,11955597000.0,4096.0,5477,0.0001481,0.0
126.46782429999996,Read,11955601000.0,4096.0,3996,5.1399999999999996e-05,0.0
126.46787569999996,Read,11932856000.0,4096.0,3482,2.33e-05,0.0
126.46789899999996,Read,11955491000.0,4096.0,3249,1.6999999999999998e-06,0.0
126.46790069999996,Read,11949040000.0,4096.0,3231,3.56e-05,0.0
126.46793629999996,Read,11949023000.0,4096.0,2876,4.2e-06,0.0
126.46794049999997,Read,11949027000.0,4096.0,2834,0.0001504,0.0
126.46809089999996,Read,11947872000.0,4096.0,1330,1.28e-05,0.0
126.46810369999996,Read,11955479000.0,4096.0,1201,2.97e-05,0.0
126.46813339999996,Read,11947917000.0,4096.0,904,0.0098062,0.0089906999999983
126.47793959999996,Read,11944247000.0,4096.0,59092,0.0050552,0.0042441999999985
126.48299479999996,Read,11947549000.0,4096.0,8540,1.14e-05,0.0
126.48300619999996,Read,11955593000.0,4096.0,8425,0.0005392,0.0
126.48354539999997,Read,11949031000.0,4096.0,3033,0.00018449999999999999,0.0
126.48372989999997,Read,11947553000.0,4096.0,1189,5.7e-06,0.0
126.48373559999997,Read,11947545000.0,4096.0,1132,0.0099249,0.0091422499999994
126.49366049999998,Read,11936666000.0,4096.0,58132,0.0017695999999999999,0.0009640249999971
126.49543009999998,Read,11928121000.0,4096.0,40436,0.0037275,0.0028874499999983
126.49915759999998,Read,11949019000.0,4096.0,3160,0.0088498,0.0079342999999977
126.50800739999997,Read,11957961000.0,4096.0,70912,0.0027919,0.0019444000000001
126.51079929999997,Read,11960115000.0,4096.0,42992,0.0041285,0.0033198250000008
126.51492779999997,Read,11947586000.0,4096.0,1708,0.0124554,0.0116138999999991
126.52738319999996,Read,11930776000.0,4096.0,33402,0.0024434,0.0016364250000011
126.52982659999996,Read,11948102000.0,4096.0,8969,0.0005170999999999999,0.0
126.53034369999996,Read,11955560000.0,4096.0,3798,0.0132681,0.0124010499999981
126.54361179999997,Read,11955790000.0,4096.0,27365,0.0012725,0.0004512000000007
126.54488429999996,Read,11930780000.0,4096.0,14640,0.0005941,0.0
126.54547839999996,Read,11930821000.0,65536.0,8700,1.15e-05,0.0
126.54548989999996,Read,11948732000.0,4096.0,8584,5.1699999999999996e-05,0.0
126.54554159999996,Read,11958407000.0,65536.0,8068,0.0002869,0.0
126.54582849999997,Read,11958350000.0,4096.0,5198,0.0001425,0.0
126.54597099999997,Read,11958342000.0,4096.0,3774,4.6399999999999996e-05,0.0
126.54601739999997,Read,11958346000.0,4096.0,3310,3.35e-05,0.0
126.54605089999997,Read,11958362000.0,4096.0,2974,0.0001283,0.0
126.54617919999997,Read,11955712000.0,4096.0,1691,2.1e-06,0.0
126.54618129999997,Read,11948114000.0,4096.0,1671,1.52e-05,0.0
126.54619649999998,Read,11955687000.0,4096.0,1518,2.16e-05,0.0
126.54621809999998,Read,11948024000.0,4096.0,1302,3.6999999999999997e-06,0.0
126.54622179999997,Read,11948118000.0,4096.0,1266,2.52e-05,0.0
126.54624699999997,Read,11955708000.0,4096.0,1013,4.4e-06,0.0
126.54625139999996,Read,11955704000.0,4096.0,969,0.0112996,0.0104893750000005
126.55755099999996,Read,11961254000.0,4096.0,44223,0.0012431,0.0004283499999955
126.55879409999996,Read,11954446000.0,65536.0,31792,0.000554,0.0
126.55934809999995,Read,11954393000.0,4096.0,26252,0.001095,0.0002942750000013
126.56044309999996,Read,11954397000.0,4096.0,15302,0.0012339999999999999,0.0004384249999976
126.56167709999995,Read,11961258000.0,2560.0,2962,0.0065692,0.0057489
126.56824629999996,Read,11930620000.0,4096.0,93518,0.0074402999999999995,0.0066671999999991
126.57568659999995,Read,11930616000.0,4096.0,19115,0.000636,0.0
126.57632259999995,Read,11930755000.0,16384.0,12756,0.0005607,0.0
126.57688329999995,Read,11930657000.0,4096.0,7148,0.0003969,0.0
126.57728019999995,Read,11930673000.0,4096.0,3179,4.2e-06,0.0
126.57728439999995,Read,11930624000.0,4096.0,3138,2.06e-05,0.0
126.57730499999995,Read,11930677000.0,4096.0,2932,9.9e-06,0.0
126.57731489999995,Read,11930784000.0,36864.0,2832,0.0087691,0.0007073749999998
126.58608399999994,Read,1890103300.0,4096.0,71390,0.0065825,0.0057956500000018
126.59266649999994,Read,11958215000.0,32768.0,5565,0.00014859999999999998,0.0
126.59281509999994,Read,11958260000.0,16384.0,4079,7.15e-05,0.0
126.59288659999994,Read,11930628000.0,4096.0,3364,3.3299999999999996e-05,0.0
126.59291989999994,Read,11958284000.0,4096.0,3032,0.0114799,0.0106674750000005
126.60439979999994,Read,160224260.0,32768.0,44482,0.0038463,0.0
126.60824609999995,Read,160271360.0,1024.0,6018,0.0001479,0.0
126.60839399999995,Read,160257020.0,13824.0,4540,0.00011389999999999999,0.0
126.60850789999995,Read,160270850.0,512.0,3400,0.0064746,0.0057240749999982
126.61498249999995,Read,11958252000.0,8192.0,94903,0.0089604,0.0081941750000013
126.62394289999996,Read,11958223000.0,24576.0,5299,0.0001596,0.0
126.62410249999996,Read,11958276000.0,8192.0,3704,0.0156852,0.0148997499999987
126.63978769999996,Read,11958219000.0,4096.0,3100,0.0001882,0.0
126.63997589999995,Read,11948073000.0,4096.0,1219,3.24e-05,0.0
126.64000829999995,Read,11948077000.0,4096.0,894,8e-07,0.0
126.64000909999994,Read,11948081000.0,4096.0,886,0.0084368,0.0075534249999992
126.64844589999994,Read,11960005000.0,29184.0,72768,0.0069321,0.0
126.65537799999994,Read,11960009000.0,8192.0,3446,1.26e-05,0.0
126.65539059999995,Read,11960025000.0,4096.0,3320,7.1e-06,0.0
126.65539769999995,Read,11960029000.0,4096.0,3250,2.37e-05,0.0
126.65542139999995,Read,11960017000.0,4096.0,3013,0.012264599999999999,0.0114062749999979
126.66768599999995,Read,11935076000.0,32768.0,36615,0.0032489999999999997,0.0
126.67093499999994,Read,11935080000.0,12288.0,4126,6.9e-05,0.0
126.67100399999994,Read,11935097000.0,8192.0,3436,1.91e-05,0.0
126.67102309999994,Read,11960021000.0,4096.0,3244,1.33e-05,0.0
126.67103639999995,Read,11935093000.0,4096.0,3112,0.00013099999999999999,0.0
126.67116739999994,Read,11948061000.0,12288.0,1802,4.4999999999999996e-05,0.0
126.67121239999994,Read,11961807000.0,4096.0,1351,2.02e-05,0.0
126.67123259999994,Read,11948044000.0,8192.0,1149,1.69e-05,0.0
126.67124949999994,Read,11948040000.0,4096.0,980,5.6e-06,0.0
126.67125509999994,Read,11948085000.0,4096.0,924,0.0110231,0.0102380249999959
126.68227819999994,Read,11955577000.0,4096.0,46942,0.0027465,0.0019198750000024
126.68502469999994,Read,11947393000.0,4096.0,19478,0.0015565,0.0007552749999973
126.68658119999995,Read,11947397000.0,12288.0,3912,4.04e-05,0.0
126.68662159999995,Read,11948917000.0,4096.0,3508,1.64e-05,0.0
126.68663799999996,Read,11948814000.0,4096.0,3344,4.7e-05,0.0
126.68668499999995,Read,11948921000.0,4096.0,2874,0.0001378,0.0
126.68682279999996,Read,11948913000.0,4096.0,1496,2.52e-05,0.0
126.68684799999996,Read,11955573000.0,4096.0,1245,0.0121362,0.0113216749999982
126.69898419999996,Read,11956482000.0,4096.0,36132,0.000466,0.0
126.69945019999996,Read,11955458000.0,4096.0,31471,0.0019841999999999998,0.0011047249999977
126.70143439999995,Read,11952746000.0,4096.0,11629,0.0008368,2.294999999768421e-05
126.70227119999996,Read,11947278000.0,4096.0,3262,1.53e-05,0.0
126.70228649999996,Read,11956486000.0,4096.0,3108,0.00018229999999999999,0.0
126.70246879999996,Read,11955769000.0,4096.0,1285,1.03e-05,0.0
126.70247909999996,Read,11955462000.0,4096.0,1183,2.7499999999999998e-05,0.0
126.70250659999996,Read,11955778000.0,4096.0,908,3.2999999999999997e-06,0.0
126.70250989999997,Read,11955466000.0,4096.0,875,1e-06,0.0
126.70251089999996,Read,11955773000.0,4096.0,864,0.0098648,0.0090525499999954
126.71237569999997,Read,11952755000.0,65536.0,58465,0.0014326999999999999,0.0
126.71380839999996,Read,11952751000.0,4096.0,44139,0.0040684,0.003195900000001
126.71787679999996,Read,11947282000.0,4096.0,3454,0.0125293,0.0113960750000024
126.73040609999995,Read,11932271000.0,16384.0,34411,3.07e-05,0.0
126.73043679999995,Read,11932365000.0,8192.0,34104,0.00023579999999999999,0.0
126.73067259999995,Read,11918299000.0,32768.0,31745,0.0098085,0.0006381000000005
126.74048109999995,Read,11932193000.0,16384.0,89910,0.0057129,0.0
126.74619399999996,Read,11932000000.0,32768.0,32780,0.00264,0.0
126.74883399999996,Read,11932033000.0,32768.0,6380,1.4799999999999999e-05,0.0
126.74884879999996,Read,11932160000.0,32768.0,6233,2.41e-05,0.0
126.74887289999997,Read,11931967000.0,32768.0,5991,0.0001446,0.0
126.74901749999997,Read,11932209000.0,16384.0,4546,4.18e-05,0.0
126.74905929999997,Read,11932320000.0,16384.0,4127,5e-07,0.0
126.74905979999997,Read,11932348000.0,16384.0,4123,0.0089499,0.0005798249999967
126.75800969999997,Read,11932299000.0,16384.0,70872,5.2e-05,0.0
126.75806169999997,Read,11932082000.0,32768.0,70352,0.006511599999999999,0.0
126.76457329999997,Read,11932115000.0,32768.0,5237,0.0001481,0.0
126.76472139999997,Read,11932287000.0,12288.0,3756,1.2299999999999999e-05,0.0
126.76473369999997,Read,11932148000.0,12288.0,3632,4.57e-05,0.0
126.76477939999997,Read,11947389000.0,4096.0,3176,0.008700399999999999,0.0078737249999992
126.77347979999996,Read,11954336000.0,4096.0,72421,0.0020553,0.0012356249999993
126.77553509999996,Read,11953963000.0,4096.0,51867,0.0046725,0.0038006499999997
126.78020759999995,Read,11954340000.0,16384.0,5142,0.0001652,0.0
126.78037279999995,Read,11953967000.0,8192.0,3491,3.0799999999999996e-05,0.0
126.78040359999996,Read,11948786000.0,4096.0,3182,5.3e-06,0.0
126.78040889999995,Read,11949007000.0,4096.0,3130,5.7999999999999995e-06,0.0
126.78041469999995,Read,11953988000.0,4096.0,3072,2.14e-05,0.0
126.78043609999995,Read,11948790000.0,4096.0,2858,0.0001392,0.0
126.78057529999995,Read,11948761000.0,4096.0,1465,7.8e-06,0.0
126.78058309999996,Read,11948757000.0,4096.0,1388,0.0100839,0.0092495249999998
126.79066699999996,Read,11946697000.0,4096.0,56798,0.0001545,0.0
126.79082149999995,Read,11955233000.0,8192.0,55252,0.005163699999999999,0.0043383999999984
126.79598519999995,Read,11955241000.0,8192.0,3615,4.9399999999999995e-05,0.0
126.79603459999994,Read,11946832000.0,4096.0,3122,0.0,0.0
126.79603459999994,Read,11946701000.0,4096.0,3122,0.0002047,0.0
126.79623929999994,Read,11948769000.0,4096.0,1074,2.13e-05,0.0
126.79626059999994,Read,11948773000.0,4096.0,861,0.011285499999999999,0.010438075
126.80754609999994,Read,11955229000.0,4096.0,44255,0.0009452,8.902499999732089e-05
126.80849129999994,Read,11924464000.0,32768.0,34803,0.0018409,0.0
126.81033219999995,Read,11948982000.0,12288.0,16395,0.0011148,0.0
126.81144699999994,Read,11932336000.0,12288.0,5246,0.0003126,0.0
126.81175959999995,Write,11861127000.0,1536.0,2121,1.81e-05,0.0
126.81177769999995,Write,11026330000.0,4096.0,1940,1.5399999999999998e-05,0.0
126.81179309999995,Read,11948978000.0,4096.0,1785,2.6099999999999997e-05,0.0
126.81181919999995,Write,9056014000.0,3072.0,1524,5.68e-05,0.0
126.81187599999994,Write,6263296000.0,3584.0,956,0.0029329,0.0024144250000028
126.81480889999995,Read,11953467000.0,4096.0,284125,0.0379651,0.0370554499999994
126.85277399999994,Read,11953471000.0,4096.0,60724,0.0013434,0.0005013000000019
126.85411739999994,Read,11923587000.0,16384.0,47289,0.0013350999999999999,0.0
126.85545249999994,Read,11926503000.0,32768.0,33938,0.0030859,0.0
126.85853839999994,Read,11932316000.0,4096.0,3080,4.2999999999999995e-06,0.0
126.85854269999994,Read,11923583000.0,4096.0,3036,0.0102185,0.0093523000000009
126.86876119999994,Read,11926561000.0,32768.0,57101,0.000503,0.0
126.86926419999993,Read,11923575000.0,8192.0,52071,0.0006077999999999999,0.0
126.86987199999993,Read,11926647000.0,24576.0,45993,0.0039978999999999995,0.0
126.87386989999993,Read,11926594000.0,32768.0,6013,0.000147,0.0
126.87401689999993,Read,11923624000.0,16384.0,4543,2.56e-05,0.0
126.87404249999993,Read,11923603000.0,16384.0,4288,0.00011549999999999999,0.0
126.87415799999994,Read,11953512000.0,4096.0,3133,1.1e-06,0.0
126.87415909999994,Read,11923620000.0,4096.0,3122,0.0106196,0.0097983500000022
126.88477869999994,Read,11936223000.0,5632.0,53175,0.0051778,0.0032612249999986
126.88995649999994,Read,11948970000.0,4096.0,1397,3.73e-05,0.0
126.88999379999994,Read,11948974000.0,4096.0,1024,1.3899999999999999e-05,0.0
126.89000769999994,Read,11948765000.0,4096.0,884,0.0102904,0.0094285499999985
126.90029809999994,Read,630575100.0,4096.0,54229,0.0016504,0.0008291000000034
126.90194849999995,Read,632983550.0,4096.0,37726,0.0012334,0.0003474750000013
126.90318189999995,Read,632688640.0,4096.0,25392,0.0014114,0.0005130250000015
126.90459329999995,Read,632197100.0,4096.0,11278,0.000122,0.0
126.90471529999995,Read,632201200.0,65536.0,10057,0.0001052,0.0
126.90482049999994,Read,632692740.0,65536.0,9006,0.00044449999999999996,0.0
126.90526499999994,Read,630579200.0,8192.0,4561,0.012226899999999999,0.0113773750000039
126.91749189999994,Read,630804500.0,4096.0,38540,0.0014426999999999999,0.000607499999999
126.91893459999994,Read,642011140.0,4096.0,24113,0.0007729,3.500000002407827e-07
126.91970749999994,Read,642015200.0,65536.0,16384,0.00026379999999999996,0.0
126.91997129999994,Read,644792300.0,12288.0,13747,0.0004613,0.0
126.92043259999994,Read,630808600.0,65536.0,9133,5.34e-05,0.0
126.92048599999994,Read,632987650.0,65536.0,8600,0.0116974,0.0029278249999994
126.93218339999994,Read,641880060.0,12288.0,47875,2.03e-05,0.0
126.93220369999995,Read,641519600.0,4096.0,47672,0.0031271999999999997,0.0022767750000005
126.93533089999994,Read,641523700.0,65536.0,16399,0.0129349,0.004475100000001
126.94826579999994,Read,295306240.0,32768.0,43299,0.0008567,0.0
126.94912249999994,Read,642338800.0,4096.0,34732,0.002489,0.0016800500000003
126.95161149999994,Read,642342900.0,65536.0,9842,0.0005434,0.0
126.95215489999994,Read,11926626000.0,20480.0,4408,0.000122,0.0
126.95227689999994,Read,11953983000.0,4096.0,3189,0.0001868,0.0
126.95246369999994,Read,11948966000.0,4096.0,1321,0.0111526,0.0103459750000008
126.96361629999994,Read,158515200.0,4096.0,46044,0.0003722,0.0
126.96398849999994,Read,177148420.0,1024.0,42322,0.0003237,0.0
126.96431219999994,Read,776831000.0,4096.0,39085,0.0002274,0.0
126.96453959999994,Read,177099780.0,29184.0,36811,0.0028561999999999997,0.0
126.96739579999993,Read,158520320.0,32768.0,8248,0.00032619999999999996,0.0
126.96772199999994,Read,158516220.0,4096.0,4987,0.009724499999999999,0.0088521999999989
126.97744649999994,Read,2625302500.0,4096.0,63990,0.0033587,0.0025595499999993
126.98080519999995,Read,776897540.0,31232.0,30403,0.0008121,0.0
126.98161729999995,Read,776947700.0,4096.0,22282,0.0016179999999999999,0.0008576999999986
126.98323529999995,Read,776832000.0,32768.0,6102,0.010710899999999999,0.0027216499999986
126.99394619999995,Read,687453200.0,32768.0,55243,0.001869,0.0
126.99581519999995,Read,19506176.0,5632.0,36553,0.000603,0.0
126.99641819999995,Read,2625298400.0,4096.0,30522,5.29e-05,0.0
126.99647109999995,Read,687646700.0,2048.0,29994,0.0024958999999999997,0.0016784999999992
126.99896699999995,Read,19512320.0,1024.0,5035,0.0102968,0.0094876500000015
127.00926379999996,Read,776864800.0,32768.0,58316,0.0016910999999999999,0.0
127.01095489999996,Read,687604740.0,31744.0,41405,0.00021459999999999998,0.0
127.01116949999997,Read,687379460.0,32768.0,39259,0.0034438999999999997,0.0
127.01461339999996,Read,776932860.0,14848.0,4820,1.89e-05,0.0
127.01463229999996,Read,177133060.0,15360.0,4631,3.99e-05,0.0
127.01467219999996,Read,687636500.0,10240.0,4231,3.53e-05,0.0
127.01470749999996,Read,776928800.0,4096.0,3879,1.9699999999999998e-05,0.0
127.01472719999995,Read,19511808.0,512.0,3682,0.011480299999999999,0.0105624000000025
127.02620749999996,Read,177067000.0,32768.0,45127,2.8199999999999998e-05,0.0
127.02623569999996,Read,158553090.0,32768.0,44845,0.0005999,0.0
127.02683559999996,Read,177955840.0,32768.0,38847,0.0032335,0.0
127.03006909999995,Read,687412200.0,32768.0,6512,0.0002672,0.0
127.03033629999995,Read,177128960.0,4096.0,3839,0.009959599999999999,0.0090438749999995
127.04029589999995,Read,687539200.0,32768.0,60493,0.0012714,0.0
127.04156729999994,Read,177942530.0,13312.0,47779,0.003129,0.0
127.04469629999994,Read,687506400.0,32768.0,16488,0.0009992,0.0
127.04569549999994,Read,687572000.0,32768.0,6497,0.00018319999999999998,0.0
127.04587869999993,Read,158594050.0,7168.0,4665,0.009387699999999999,0.0082956249999992
127.05526639999994,Read,152137730.0,12288.0,67037,0.0039416,0.0
127.05920799999994,Read,57958400.0,4096.0,27621,0.0007865999999999999,1.1275000000845017e-05
127.05999459999994,Read,295179260.0,16384.0,19754,0.0002943,0.0
127.06028889999993,Read,295273470.0,32768.0,16811,0.0009282,0.0
127.06121709999994,Read,177996800.0,32768.0,7529,0.0001563,0.0
127.06137339999994,Read,295339000.0,32768.0,5967,8.47e-05,0.0
127.06145809999994,Read,57969150.0,1024.0,5119,9.779999999999999e-05,0.0
127.06155589999995,Read,57959424.0,9216.0,4142,2.2e-06,0.0
127.06155809999994,Read,177988600.0,8192.0,4120,7.439999999999999e-05,0.0
127.06163249999994,Read,57968640.0,512.0,3376,0.1148068,0.1138988500000033
127.17643929999994,Read,11947512000.0,4096.0,105300,0.0101113,0.0091797250000008
127.18655059999995,Read,11953979000.0,4096.0,4187,0.0001075,0.0
127.18665809999995,Read,11947516000.0,4096.0,3111,3.6e-06,0.0
127.18666169999995,Read,11953394000.0,4096.0,3076,0.0114197,0.01063505
127.19808139999995,Read,11953836000.0,4096.0,45127,0.0020915,0.0012912000000001
127.20017289999996,Read,11953398000.0,4096.0,24212,0.00047539999999999995,0.0
127.20064829999995,Read,11946394000.0,4096.0,19458,0.0006703,0.0
127.20131859999995,Read,11946598000.0,4096.0,12755,0.0009461999999999999,0.0001342999999999
127.20226479999995,Read,11953357000.0,4096.0,3293,9.499999999999999e-06,0.0
127.20227429999996,Read,11947266000.0,4096.0,3198,1.03e-05,0.0
127.20228459999996,Read,11946594000.0,4096.0,3096,5.4e-06,0.0
127.20228999999996,Read,11953361000.0,4096.0,3042,3.6e-06,0.0
127.20229359999996,Read,11946602000.0,4096.0,3006,5e-07,0.0
127.20229409999996,Read,11953402000.0,4096.0,3000,3.9e-06,0.0
127.20229799999996,Read,11946398000.0,4096.0,2961,8e-07,0.0
127.20229879999995,Read,11953840000.0,4096.0,2953,0.015561799999999999,0.0147738999999958
127.21786059999995,Read,11954332000.0,4096.0,3584,1.2e-05,0.0
127.21787259999995,Read,11953414000.0,8192.0,3464,2.2499999999999998e-05,0.0
127.21789509999995,Read,11953848000.0,4096.0,3239,3.5e-06,0.0
127.21789859999996,Read,11954057000.0,4096.0,3205,2e-06,0.0
127.21790059999995,Read,11953410000.0,4096.0,3184,8.1e-06,0.0
127.21790869999995,Read,11954000000.0,4096.0,3104,6e-07,0.0
127.21790929999996,Read,11953353000.0,4096.0,3098,6.3e-06,0.0
127.21791559999996,Read,11954061000.0,4096.0,3034,2.8e-06,0.0
127.21791839999996,Read,11953852000.0,4096.0,3007,0.0060913,0.0052608999999983
127.22400969999995,Read,11954381000.0,12288.0,98342,0.007101,0.0
127.23111069999996,Read,11946545000.0,4096.0,27332,0.0023679,0.0015256500000001
127.23347859999996,Read,11946263000.0,4096.0,3654,1.55e-05,0.0
