Op_Read,Op_Write,CPU_0,CPU_1,CPU_2,CPU_3,CPU_4,CPU_5,CPU_6,CPU_7,CPU_8,CPU_9,CPU_10,CPU_11,CPU_12,CPU_13,CPU_14,CPU_15,CPU_16,CPU_17,CPU_18,CPU_19,CPU_20,CPU_21,CPU_22,CPU_23,CPU_24,CPU_25,CPU_26,CPU_27,size (bytes),inter request time (s),SSD processing time (s),future inter request time (s)
0,1,0,0,0,0,0,0,0,0,0,0,1,0,0,0,0,0,0,0,0,0,0,0,0,0,0,0,0,0,2048.0,-11.984690642385786,8.7478e-05,-11.985652796625041
0,1,0,0,0,0,0,0,0,0,0,0,1,0,0,0,0,0,0,0,0,0,0,0,0,0,0,0,0,0,2048.0,-11.985652796625041,8.7458e-05,-12.007057866325464
0,1,0,0,0,0,0,0,0,0,0,0,1,0,0,0,0,0,0,0,0,0,0,0,0,0,0,0,0,0,2048.0,-12.007057866325464,8.6877e-05,-11.97005236400892
0,1,0,0,0,0,0,0,0,0,0,0,1,0,0,0,0,0,0,0,0,0,0,0,0,0,0,0,0,0,2048.0,-11.97005236400892,7.1442e-05,-11.971316773123826
0,1,0,0,0,0,0,0,0,0,0,0,1,0,0,0,0,0,0,0,0,0,0,0,0,0,0,0,0,0,2048.0,-11.971316773123826,6.428400000000001e-05,-11.969894416243928
0,1,0,0,0,0,0,0,0,0,0,0,1,0,0,0,0,0,0,0,0,0,0,0,0,0,0,0,0,0,2048.0,-11.969894416243928,5.5346e-05,-12.02458477267328
0,1,0,0,0,0,0,0,0,0,0,0,1,0,0,0,0,0,0,0,0,0,0,0,0,0,0,0,0,0,2048.0,-12.02458477267328,4.6277e-05,-11.982449203340542
0,1,0,0,0,0,0,0,0,0,0,0,1,0,0,0,0,0,0,0,0,0,0,0,0,0,0,0,0,0,2048.0,-11.982449203340542,7.281300000000001e-05,-11.990316314661646
0,1,0,0,0,0,0,0,0,0,0,0,1,0,0,0,0,0,0,0,0,0,0,0,0,0,0,0,0,0,2048.0,-11.990316314661646,4.7138e-05,-9.298985810731214
0,1,0,0,0,0,0,0,0,0,0,0,1,0,0,0,0,0,0,0,0,0,0,0,0,0,0,0,0,0,2048.0,-9.298985810731214,4.7097e-05,-11.939409944638413
